<?xml version="1.0" encoding="UTF-8"?>
<!DOCTYPE svg PUBLIC "-//W3C//DTD SVG 1.1//EN" "http://www.w3.org/Graphics/SVG/1.1/DTD/svg11.dtd">
<svg xmlns="http://www.w3.org/2000/svg" version="1.1" width="1331px" height="960px" style="shape-rendering:geometricPrecision; text-rendering:geometricPrecision; image-rendering:optimizeQuality; fill-rule:evenodd; clip-rule:evenodd" xmlns:xlink="http://www.w3.org/1999/xlink">
<g><path style="opacity:1" fill="#fefefe" d="M -0.5,-0.5 C 443.167,-0.5 886.833,-0.5 1330.5,-0.5C 1330.5,319.5 1330.5,639.5 1330.5,959.5C 886.833,959.5 443.167,959.5 -0.5,959.5C -0.5,639.5 -0.5,319.5 -0.5,-0.5 Z"/></g>
<g><path style="opacity:1" fill="#e1e1e1" d="M 170.5,61.5 C 171.568,60.5655 172.901,60.2322 174.5,60.5C 174.5,200.5 174.5,340.5 174.5,480.5C 173.833,340.833 173.167,201.167 172.5,61.5C 171.833,61.5 171.167,61.5 170.5,61.5 Z"/></g>
<g><path style="opacity:1" fill="#b0b0b0" d="M 170.5,61.5 C 170.667,201.5 170.5,341.5 170,481.5C 169.329,482.252 168.496,482.586 167.5,482.5C 169.16,342.141 170.16,201.808 170.5,61.5 Z"/></g>
<g><path style="opacity:1" fill="#adadad" d="M 172.5,61.5 C 173.167,201.167 173.833,340.833 174.5,480.5C 230.669,480.168 286.669,480.501 342.5,481.5C 285.833,481.5 229.167,481.5 172.5,481.5C 172.5,341.5 172.5,201.5 172.5,61.5 Z"/></g>
<g><path style="opacity:1" fill="#7d7d7d" d="M 170.5,61.5 C 171.167,61.5 171.833,61.5 172.5,61.5C 172.5,201.5 172.5,341.5 172.5,481.5C 229.167,481.5 285.833,481.5 342.5,481.5C 374.833,481.5 407.167,481.5 439.5,481.5C 350.833,482.167 262.167,482.833 173.5,483.5C 173.667,575.834 173.5,668.167 173,760.5C 172,761.833 171,761.833 170,760.5C 170.161,667.622 169.327,574.955 167.5,482.5C 168.496,482.586 169.329,482.252 170,481.5C 170.5,341.5 170.667,201.5 170.5,61.5 Z"/></g>
<g><path style="opacity:1" fill="#959595" d="M 1098.5,217.5 C 1095.29,217.19 1092.29,217.523 1089.5,218.5C 1088.96,218.44 1088.62,218.107 1088.5,217.5C 1091.98,216.194 1095.31,216.194 1098.5,217.5 Z"/></g>
<g><path style="opacity:1" fill="#959595" d="M 1150.5,217.5 C 1147.29,217.19 1144.29,217.523 1141.5,218.5C 1140.96,218.44 1140.62,218.107 1140.5,217.5C 1143.98,216.194 1147.31,216.194 1150.5,217.5 Z"/></g>
<g><path style="opacity:1" fill="#484848" d="M 1034.5,216.5 C 1037.9,216.18 1041.23,216.513 1044.5,217.5C 1041.91,218.48 1039.25,218.813 1036.5,218.5C 1036.5,220.167 1036.5,221.833 1036.5,223.5C 1047.17,224.167 1047.17,224.833 1036.5,225.5C 1036.8,227.604 1036.47,229.604 1035.5,231.5C 1034.51,226.544 1034.17,221.544 1034.5,216.5 Z"/></g>
<g><path style="opacity:1" fill="#565656" d="M 1120.5,216.5 C 1127.07,216.192 1128.73,218.692 1125.5,224C 1128.17,226.333 1128.17,228.667 1125.5,231C 1118.29,232.304 1116.29,229.804 1119.5,223.5C 1118.07,220.884 1118.41,218.551 1120.5,216.5 Z"/></g>
<g><path style="opacity:1" fill="#434343" d="M 1190.5,217.5 C 1193.52,217.335 1196.52,217.502 1199.5,218C 1202.17,220.333 1202.17,222.667 1199.5,225C 1197.19,225.497 1194.86,225.663 1192.5,225.5C 1192.8,227.604 1192.47,229.604 1191.5,231.5C 1190.51,226.88 1190.17,222.214 1190.5,217.5 Z"/></g>
<g><path style="opacity:1" fill="#f3f3f3" d="M 1120.5,218.5 C 1123.95,217.756 1125.62,219.09 1125.5,222.5C 1123.83,222.5 1122.17,222.5 1120.5,222.5C 1120.5,221.167 1120.5,219.833 1120.5,218.5 Z"/></g>
<g><path style="opacity:1" fill="#484848" d="M 1132.5,223.5 C 1134.22,222.193 1136.06,222.193 1138,223.5C 1139.74,229.888 1137.57,232.221 1131.5,230.5C 1128.59,225.721 1128.92,221.221 1132.5,217C 1135,216.126 1137,216.793 1138.5,219C 1136.56,218.695 1134.56,218.695 1132.5,219C 1131.2,220.616 1131.2,222.116 1132.5,223.5 Z"/></g>
<g><path style="opacity:1" fill="#ededed" d="M 1192.5,218.5 C 1194.53,218.338 1196.53,218.505 1198.5,219C 1199.99,221.022 1199.66,222.688 1197.5,224C 1195.87,224.494 1194.2,224.66 1192.5,224.5C 1192.5,222.5 1192.5,220.5 1192.5,218.5 Z"/></g>
<g><path style="opacity:1" fill="#4b4b4b" d="M 1141.5,218.5 C 1144.29,217.523 1147.29,217.19 1150.5,217.5C 1147.97,221.893 1145.97,226.56 1144.5,231.5C 1143.39,230.277 1143.22,228.944 1144,227.5C 1145.36,224.619 1146.86,221.786 1148.5,219C 1146.19,218.503 1143.86,218.337 1141.5,218.5 Z"/></g>
<g><path style="opacity:1" fill="#494949" d="M 1089.5,218.5 C 1092.29,217.523 1095.29,217.19 1098.5,217.5C 1095.97,221.893 1093.97,226.56 1092.5,231.5C 1091.68,226.776 1093.02,222.61 1096.5,219C 1094.19,218.503 1091.86,218.337 1089.5,218.5 Z"/></g>
<g><path style="opacity:1" fill="#ededed" d="M 1132.5,223.5 C 1137.16,223.015 1138.49,224.848 1136.5,229C 1131.73,229.81 1130.39,227.977 1132.5,223.5 Z"/></g>
<g><path style="opacity:1" fill="#f1f1f1" d="M 1120.5,224.5 C 1124.5,223.833 1126.17,225.5 1125.5,229.5C 1123.5,229.5 1121.5,229.5 1119.5,229.5C 1119.37,227.708 1119.7,226.042 1120.5,224.5 Z"/></g>
<g><path style="opacity:1" fill="#484848" d="M 1162.5,216.5 C 1166.16,216 1169.16,217.167 1171.5,220C 1169.66,219.421 1167.66,218.921 1165.5,218.5C 1163.63,218.39 1162.13,219.056 1161,220.5C 1160.02,223.669 1160.52,226.503 1162.5,229C 1165.76,229.616 1168.76,229.283 1171.5,228C 1168.16,232.028 1164.33,232.528 1160,229.5C 1157.4,224.404 1158.24,220.071 1162.5,216.5 Z"/></g>
<g><path style="opacity:1" fill="#4b4b4b" d="M 1080.5,216.5 C 1083.02,216.128 1085.02,216.961 1086.5,219C 1084.56,218.695 1082.56,218.695 1080.5,219C 1079.66,220.011 1079.33,221.178 1079.5,222.5C 1086.68,221.985 1088.34,224.818 1084.5,231C 1079.13,232.015 1076.8,229.682 1077.5,224C 1077.11,220.876 1078.11,218.376 1080.5,216.5 Z"/></g>
<g><path style="opacity:1" fill="#efefef" d="M 1080.5,223.5 C 1084.69,223.403 1086.03,225.236 1084.5,229C 1079.73,229.81 1078.39,227.977 1080.5,223.5 Z"/></g>
<g><path style="opacity:1" fill="#565656" d="M 1106.5,216.5 C 1107.95,219.937 1109.28,223.603 1110.5,227.5C 1109.35,228.719 1108.35,230.052 1107.5,231.5C 1106.61,230.675 1106.28,229.675 1106.5,228.5C 1104.08,228.808 1101.74,228.474 1099.5,227.5C 1102.09,223.974 1104.43,220.308 1106.5,216.5 Z"/></g>
<g><path style="opacity:1" fill="#f5f5f5" d="M 1105.5,220.5 C 1106.46,222.265 1106.79,224.265 1106.5,226.5C 1105.02,226.762 1103.69,226.429 1102.5,225.5C 1103.76,223.971 1104.76,222.305 1105.5,220.5 Z"/></g>
<g><path style="opacity:1" fill="#474747" d="M 1177.5,216.5 C 1187.05,216.885 1189.71,221.385 1185.5,230C 1176.32,233.325 1172.49,230.158 1174,220.5C 1175.1,219.051 1176.27,217.718 1177.5,216.5 Z"/></g>
<g><path style="opacity:1" fill="#f8f8f8" d="M 1177.5,218.5 C 1185.62,218.382 1187.62,221.882 1183.5,229C 1176.49,230.324 1173.99,227.49 1176,220.5C 1176.72,219.956 1177.22,219.289 1177.5,218.5 Z"/></g>
<g><path style="opacity:1" fill="#646464" d="M 1049.5,226.5 C 1051.5,226.5 1053.5,226.5 1055.5,226.5C 1055.66,229.187 1055.5,231.854 1055,234.5C 1054.5,232.19 1054.34,229.857 1054.5,227.5C 1053.5,227.5 1052.5,227.5 1051.5,227.5C 1051.81,229.924 1051.47,232.257 1050.5,234.5C 1049.52,231.914 1049.19,229.247 1049.5,226.5 Z"/></g>
<g><path style="opacity:1" fill="#959595" d="M 1112.5,228.5 C 1116.31,229.754 1116.31,230.754 1112.5,231.5C 1112.5,230.5 1112.5,229.5 1112.5,228.5 Z"/></g>
<g><path style="opacity:1" fill="#707070" d="M 1057.5,226.5 C 1058.68,227.974 1059.68,229.64 1060.5,231.5C 1061.43,229.887 1062.26,228.221 1063,226.5C 1061.49,237.154 1059.66,237.154 1057.5,226.5 Z"/></g>
<g><path style="opacity:1" fill="#63eb60" d="M 1118.5,263.5 C 1117.85,262.909 1117.18,262.243 1116.5,261.5C 1115.85,263.184 1114.85,264.517 1113.5,265.5C 1114.1,262.692 1115.1,260.026 1116.5,257.5C 1118.09,259.173 1118.75,261.173 1118.5,263.5 Z"/></g>
<g><path style="opacity:1" fill="#2ffa30" d="M 1118.5,263.5 C 1119.92,265.515 1120.59,267.848 1120.5,270.5C 1120.5,271.167 1120.5,271.833 1120.5,272.5C 1117.75,272.813 1115.09,272.48 1112.5,271.5C 1113.31,269.929 1113.64,268.262 1113.5,266.5C 1113.5,266.167 1113.5,265.833 1113.5,265.5C 1114.85,264.517 1115.85,263.184 1116.5,261.5C 1117.18,262.243 1117.85,262.909 1118.5,263.5 Z"/></g>
<g><path style="opacity:1" fill="#49e04c" d="M 1113.5,266.5 C 1113.64,268.262 1113.31,269.929 1112.5,271.5C 1115.09,272.48 1117.75,272.813 1120.5,272.5C 1119.79,273.404 1118.79,273.737 1117.5,273.5C 1117.5,342.167 1117.5,410.833 1117.5,479.5C 1116.83,411.167 1116.17,342.833 1115.5,274.5C 1114.17,274.5 1112.83,274.5 1111.5,274.5C 1111.29,271.505 1111.96,268.838 1113.5,266.5 Z"/></g>
<g><path style="opacity:1" fill="#67f46a" d="M 1115.5,274.5 C 1116.17,342.833 1116.83,411.167 1117.5,479.5C 1117.5,479.833 1117.5,480.167 1117.5,480.5C 1116.83,480.5 1116.17,480.5 1115.5,480.5C 1115.5,411.833 1115.5,343.167 1115.5,274.5 Z"/></g>
<g><path style="opacity:1" fill="#e3ffe3" d="M 1111.5,274.5 C 1112.83,274.5 1114.17,274.5 1115.5,274.5C 1115.5,343.167 1115.5,411.833 1115.5,480.5C 1115.17,480.5 1114.83,480.5 1114.5,480.5C 1114.5,412.167 1114.5,343.833 1114.5,275.5C 1113.21,275.737 1112.21,275.404 1111.5,274.5 Z"/></g>
<g><path style="opacity:1" fill="#c6fec6" d="M 1120.5,270.5 C 1121.43,271.568 1121.77,272.901 1121.5,274.5C 1120.5,274.5 1119.5,274.5 1118.5,274.5C 1118.5,343.167 1118.5,411.833 1118.5,480.5C 1118.17,480.5 1117.83,480.5 1117.5,480.5C 1117.5,480.167 1117.5,479.833 1117.5,479.5C 1117.5,410.833 1117.5,342.167 1117.5,273.5C 1118.79,273.737 1119.79,273.404 1120.5,272.5C 1120.5,271.833 1120.5,271.167 1120.5,270.5 Z"/></g>
<g><path style="opacity:1" fill="#4f4f4f" d="M 355.5,291.5 C 359.226,291.177 362.893,291.511 366.5,292.5C 363.572,293.484 360.572,293.817 357.5,293.5C 357.5,295.167 357.5,296.833 357.5,298.5C 368.167,299.167 368.167,299.833 357.5,300.5C 357.799,302.604 357.466,304.604 356.5,306.5C 355.506,301.544 355.173,296.544 355.5,291.5 Z"/></g>
<g><path style="opacity:1" fill="#454545" d="M 518.5,292.5 C 521.518,292.335 524.518,292.502 527.5,293C 530.167,295.333 530.167,297.667 527.5,300C 525.19,300.497 522.857,300.663 520.5,300.5C 520.799,302.604 520.466,304.604 519.5,306.5C 518.507,301.88 518.173,297.214 518.5,292.5 Z"/></g>
<g><path style="opacity:1" fill="#efefef" d="M 520.5,293.5 C 522.527,293.338 524.527,293.505 526.5,294C 527.479,298.517 525.479,300.35 520.5,299.5C 520.5,297.5 520.5,295.5 520.5,293.5 Z"/></g>
<g><path style="opacity:1" fill="#555555" d="M 408.5,291.5 C 413.35,291.519 415.683,294.019 415.5,299C 415.085,306.126 411.918,307.959 406,304.5C 405.333,301.167 405.333,297.833 406,294.5C 406.698,293.309 407.531,292.309 408.5,291.5 Z"/></g>
<g><path style="opacity:1" fill="#f3f3f3" d="M 408.5,293.5 C 412.319,293.28 413.986,295.113 413.5,299C 413.819,303.313 411.819,305.146 407.5,304.5C 407.244,300.731 407.577,297.064 408.5,293.5 Z"/></g>
<g><path style="opacity:1" fill="#4b4b4b" d="M 419.5,291.5 C 422.325,291.081 424.491,292.081 426,294.5C 426.956,298.572 426.456,302.405 424.5,306C 420.834,307.271 418.334,306.104 417,302.5C 415.946,298.345 416.78,294.678 419.5,291.5 Z"/></g>
<g><path style="opacity:1" fill="#f6f6f6" d="M 419.5,293.5 C 421.144,293.286 422.644,293.62 424,294.5C 424.784,297.76 424.617,300.927 423.5,304C 421.888,304.72 420.388,304.554 419,303.5C 418.253,300.076 418.42,296.743 419.5,293.5 Z"/></g>
<g><path style="opacity:1" fill="#4c4c4c" d="M 431.5,291.5 C 436.35,291.519 438.683,294.019 438.5,299C 438.409,305.114 435.576,307.281 430,305.5C 427.622,300.406 428.122,295.739 431.5,291.5 Z"/></g>
<g><path style="opacity:1" fill="#f6f6f6" d="M 431.5,293.5 C 433.144,293.286 434.644,293.62 436,294.5C 436.784,297.76 436.617,300.927 435.5,304C 433.888,304.72 432.388,304.554 431,303.5C 430.253,300.076 430.42,296.743 431.5,293.5 Z"/></g>
<g><path style="opacity:1" fill="#505050" d="M 460.5,291.5 C 465.35,291.519 467.683,294.019 467.5,299C 467.409,305.114 464.576,307.281 459,305.5C 456.626,300.365 457.126,295.698 460.5,291.5 Z"/></g>
<g><path style="opacity:1" fill="#f7f7f7" d="M 460.5,293.5 C 462.451,293.227 463.951,293.893 465,295.5C 465.667,297.833 465.667,300.167 465,302.5C 463.688,304.658 462.022,304.991 460,303.5C 459.253,300.076 459.42,296.743 460.5,293.5 Z"/></g>
<g><path style="opacity:1" fill="#4d4d4d" d="M 471.5,291.5 C 474.368,291.085 476.535,292.085 478,294.5C 478.956,298.572 478.456,302.405 476.5,306C 472.834,307.271 470.334,306.104 469,302.5C 467.946,298.345 468.78,294.678 471.5,291.5 Z"/></g>
<g><path style="opacity:1" fill="#f4f4f4" d="M 471.5,293.5 C 473.144,293.286 474.644,293.62 476,294.5C 476.784,297.76 476.617,300.927 475.5,304C 473.888,304.72 472.388,304.554 471,303.5C 470.253,300.076 470.42,296.743 471.5,293.5 Z"/></g>
<g><path style="opacity:1" fill="#474747" d="M 505.5,291.5 C 515.024,291.867 517.691,296.367 513.5,305C 504.319,308.325 500.485,305.158 502,295.5C 502.69,293.65 503.856,292.316 505.5,291.5 Z"/></g>
<g><path style="opacity:1" fill="#f8f8f8" d="M 505.5,293.5 C 513.618,293.382 515.618,296.882 511.5,304C 504.495,305.324 501.995,302.49 504,295.5C 504.717,294.956 505.217,294.289 505.5,293.5 Z"/></g>
<g><path style="opacity:1" fill="#414141" d="M 369.5,300.5 C 369.56,299.957 369.893,299.624 370.5,299.5C 370.961,302.955 371.961,306.122 373.5,309C 371.833,309.667 370.167,309.667 368.5,309C 369.684,307.82 370.351,306.32 370.5,304.5C 370.489,302.955 370.156,301.622 369.5,300.5 Z"/></g>
<g><path style="opacity:1" fill="#515151" d="M 390.5,299.5 C 387.413,295.846 388.08,293.18 392.5,291.5C 397.686,292.43 398.686,294.93 395.5,299C 398.167,301.333 398.167,303.667 395.5,306C 390.014,307.825 387.514,305.992 388,300.5C 388.671,299.748 389.504,299.414 390.5,299.5 Z"/></g>
<g><path style="opacity:1" fill="#ebebeb" d="M 390.5,299.5 C 395.159,299.015 396.492,300.848 394.5,305C 390.266,305.267 388.933,303.434 390.5,299.5 Z"/></g>
<g><path style="opacity:1" fill="#f7f7f7" d="M 390.5,293.5 C 393.95,292.756 395.616,294.09 395.5,297.5C 393.833,297.5 392.167,297.5 390.5,297.5C 390.5,296.167 390.5,294.833 390.5,293.5 Z"/></g>
<g><path style="opacity:1" fill="#4b4b4b" d="M 490.5,291.5 C 494.164,291 497.164,292.167 499.5,295C 497.384,294.718 495.217,294.218 493,293.5C 491.289,293.439 489.956,294.106 489,295.5C 488.022,298.669 488.522,301.503 490.5,304C 493.758,304.616 496.758,304.283 499.5,303C 495.083,307.732 490.916,307.565 487,302.5C 485.662,297.96 486.829,294.293 490.5,291.5 Z"/></g>
<g><path style="opacity:1" fill="#4b4b4b" d="M 448.5,291.5 C 451.325,291.081 453.491,292.081 455,294.5C 455.956,298.572 455.456,302.405 453.5,306C 449.834,307.271 447.334,306.104 446,302.5C 444.812,298.259 445.645,294.592 448.5,291.5 Z"/></g>
<g><path style="opacity:1" fill="#f7f7f7" d="M 448.5,293.5 C 450.144,293.286 451.644,293.62 453,294.5C 453.784,297.76 453.617,300.927 452.5,304C 450.888,304.72 449.388,304.554 448,303.5C 447.253,300.076 447.42,296.743 448.5,293.5 Z"/></g>
<g><path style="opacity:1" fill="#545454" d="M 400.5,304.5 C 402.337,304.639 402.67,305.306 401.5,306.5C 400.702,306.043 400.369,305.376 400.5,304.5 Z"/></g>
<g><path style="opacity:1" fill="#37f736" d="M 445.5,348.5 C 445.5,349.5 445.5,350.5 445.5,351.5C 442.833,351.5 440.167,351.5 437.5,351.5C 437.5,350.167 437.5,348.833 437.5,347.5C 440.481,332.839 443.147,333.172 445.5,348.5 Z"/></g>
<g><path style="opacity:1" fill="#cafecc" d="M 446.5,349.5 C 447.434,350.568 447.768,351.901 447.5,353.5C 446.167,353.5 444.833,353.5 443.5,353.5C 443.5,360.5 443.5,367.5 443.5,374.5C 442.508,367.352 442.175,360.019 442.5,352.5C 443.833,352.5 445.167,352.5 446.5,352.5C 446.5,351.5 446.5,350.5 446.5,349.5 Z"/></g>
<g><path style="opacity:1" fill="#deffdf" d="M 436.5,350.5 C 437.183,352.176 438.517,352.843 440.5,352.5C 440.373,387.004 440.707,421.504 441.5,456C 441.502,464.528 442.169,472.695 443.5,480.5C 443.5,480.833 443.5,481.167 443.5,481.5C 442.5,481.5 441.5,481.5 440.5,481.5C 439.722,438.838 439.389,396.171 439.5,353.5C 438.167,353.5 436.833,353.5 435.5,353.5C 435.263,352.209 435.596,351.209 436.5,350.5 Z"/></g>
<g><path style="opacity:1" fill="#69e869" d="M 437.5,347.5 C 437.5,348.833 437.5,350.167 437.5,351.5C 440.167,351.5 442.833,351.5 445.5,351.5C 445.5,350.5 445.5,349.5 445.5,348.5C 446.167,348.5 446.5,348.833 446.5,349.5C 446.5,350.5 446.5,351.5 446.5,352.5C 445.167,352.5 443.833,352.5 442.5,352.5C 442.175,360.019 442.508,367.352 443.5,374.5C 443.5,409.833 443.5,445.167 443.5,480.5C 442.169,472.695 441.502,464.528 441.5,456C 440.707,421.504 440.373,387.004 440.5,352.5C 438.517,352.843 437.183,352.176 436.5,350.5C 436.263,349.209 436.596,348.209 437.5,347.5 Z"/></g>
<g><path style="opacity:1" fill="#484848" d="M 1161.5,477.5 C 1163.72,477.178 1165.56,477.845 1167,479.5C 1167.67,482.167 1167.67,484.833 1167,487.5C 1165.27,489.602 1163.27,489.935 1161,488.5C 1160.8,490.256 1160.3,491.922 1159.5,493.5C 1158.51,488.544 1158.17,483.544 1158.5,478.5C 1159.79,478.737 1160.79,478.404 1161.5,477.5 Z"/></g>
<g><path style="opacity:1" fill="#535353" d="M 1180.5,477.5 C 1181.38,477.369 1182.04,477.702 1182.5,478.5C 1183.31,480.925 1184.31,483.258 1185.5,485.5C 1186.69,483.258 1187.69,480.925 1188.5,478.5C 1189.17,477.167 1189.83,477.167 1190.5,478.5C 1189.33,481.5 1188.17,484.5 1187,487.5C 1185.99,488.337 1184.82,488.67 1183.5,488.5C 1182.79,484.752 1181.79,481.086 1180.5,477.5 Z"/></g>
<g><path style="opacity:1" fill="#f8f8f8" d="M 1161.5,479.5 C 1162.83,479.5 1164.17,479.5 1165.5,479.5C 1165.5,482.167 1165.5,484.833 1165.5,487.5C 1163.86,487.714 1162.36,487.38 1161,486.5C 1160.3,484.071 1160.46,481.738 1161.5,479.5 Z"/></g>
<g><path style="opacity:1" fill="#c6c6c6" d="M 546.5,481.5 C 735.666,480.5 924.999,480.167 1114.5,480.5C 1114.83,480.5 1115.17,480.5 1115.5,480.5C 1116.17,480.5 1116.83,480.5 1117.5,480.5C 1117.83,480.5 1118.17,480.5 1118.5,480.5C 1120.05,480.821 1120.71,481.821 1120.5,483.5C 1119.5,483.5 1118.5,483.5 1117.5,483.5C 1117.5,482.167 1116.83,481.5 1115.5,481.5C 925.833,481.5 736.167,481.5 546.5,481.5 Z"/></g>
<g><path style="opacity:1" fill="#474747" d="M 1175.5,487.5 C 1172.63,490.322 1170.63,489.656 1169.5,485.5C 1171.03,482.908 1173.36,481.908 1176.5,482.5C 1176.5,481.5 1176.5,480.5 1176.5,479.5C 1174.33,479.92 1172.33,479.92 1170.5,479.5C 1172.92,476.872 1175.42,476.872 1178,479.5C 1178.22,482.426 1178.72,485.26 1179.5,488C 1178.18,488.195 1176.85,488.028 1175.5,487.5 Z"/></g>
<g><path style="opacity:1" fill="#676767" d="M 439.5,481.5 C 439.833,481.5 440.167,481.5 440.5,481.5C 441.5,481.5 442.5,481.5 443.5,481.5C 477.833,481.5 512.167,481.5 546.5,481.5C 736.167,481.5 925.833,481.5 1115.5,481.5C 1115.5,482.167 1115.5,482.833 1115.5,483.5C 802.5,483.5 489.5,483.5 176.5,483.5C 175.833,483.5 175.167,483.5 174.5,483.5C 174.167,483.5 173.833,483.5 173.5,483.5C 262.167,482.833 350.833,482.167 439.5,481.5 Z"/></g>
<g><path style="opacity:1" fill="#f1f1f1" d="M 1175.5,487.5 C 1174.17,487.5 1172.83,487.5 1171.5,487.5C 1171.38,484.09 1173.05,482.756 1176.5,483.5C 1176.57,484.959 1176.23,486.292 1175.5,487.5 Z"/></g>
<g><path style="opacity:1" fill="#282fa8" d="M 174.5,483.5 C 175.167,483.5 175.833,483.5 176.5,483.5C 179.811,487.147 183.145,490.813 186.5,494.5C 185.509,495.665 184.509,496.832 183.5,498C 183.645,498.772 183.978,499.439 184.5,500C 182.953,500.333 181.62,499.833 180.5,498.5C 179.264,499.246 177.93,499.579 176.5,499.5C 175.997,494.141 175.33,488.807 174.5,483.5 Z"/></g>
<g><path style="opacity:1" fill="#c52f2e" d="M 443.5,489.5 C 443.5,493.167 443.5,496.833 443.5,500.5C 443.5,501.167 443.5,501.833 443.5,502.5C 443.5,505.5 443.5,508.5 443.5,511.5C 443.5,512.167 443.5,512.833 443.5,513.5C 443.5,550.5 443.5,587.5 443.5,624.5C 442.833,624.5 442.167,624.5 441.5,624.5C 441.5,624.167 441.5,623.833 441.5,623.5C 442.167,578.833 442.833,534.167 443.5,489.5 Z"/></g>
<g><path style="opacity:1" fill="#555555" d="M 780.5,493.5 C 783.119,493.232 785.619,493.565 788,494.5C 789.334,498.485 788.001,501.152 784,502.5C 783.517,503.448 783.351,504.448 783.5,505.5C 785.199,505.34 786.866,505.506 788.5,506C 785.518,506.498 782.518,506.665 779.5,506.5C 779.594,502.646 781.428,499.979 785,498.5C 785.483,497.552 785.649,496.552 785.5,495.5C 783.516,495.383 781.85,496.05 780.5,497.5C 779.374,496.192 779.374,494.858 780.5,493.5 Z"/></g>
<g><path style="opacity:1" fill="#d7d0d0" d="M 443.5,487.5 C 444.482,490.962 444.815,494.629 444.5,498.5C 446.5,498.5 448.5,498.5 450.5,498.5C 450.646,502.519 450.979,506.519 451.5,510.5C 453.359,510.461 454.692,511.294 455.5,513C 451.974,514.337 448.308,514.837 444.5,514.5C 444.5,514.167 444.5,513.833 444.5,513.5C 447.187,513.664 449.854,513.497 452.5,513C 451.584,512.626 450.75,512.126 450,511.5C 449.501,507.514 449.334,503.514 449.5,499.5C 447.379,499.325 445.379,499.659 443.5,500.5C 443.5,496.833 443.5,493.167 443.5,489.5C 443.5,488.833 443.5,488.167 443.5,487.5 Z"/></g>
<g><path style="opacity:1" fill="#595757" d="M 444.5,513.5 C 444.167,513.5 443.833,513.5 443.5,513.5C 443.5,512.833 443.5,512.167 443.5,511.5C 444.5,511.5 445.5,511.5 446.5,511.5C 446.82,508.102 446.487,504.768 445.5,501.5C 444.817,501.863 444.15,502.196 443.5,502.5C 443.5,501.833 443.5,501.167 443.5,500.5C 445.379,499.659 447.379,499.325 449.5,499.5C 449.334,503.514 449.501,507.514 450,511.5C 450.75,512.126 451.584,512.626 452.5,513C 449.854,513.497 447.187,513.664 444.5,513.5 Z"/></g>
<g><path style="opacity:1" fill="#ecddde" d="M 443.5,511.5 C 443.5,508.5 443.5,505.5 443.5,502.5C 444.15,502.196 444.817,501.863 445.5,501.5C 446.487,504.768 446.82,508.102 446.5,511.5C 445.5,511.5 444.5,511.5 443.5,511.5 Z"/></g>
<g><path style="opacity:1" fill="#636365" d="M 191.5,511.5 C 190.333,509.959 189,508.625 187.5,507.5C 186.817,505.824 185.483,505.157 183.5,505.5C 183.5,508.5 183.5,511.5 183.5,514.5C 185.292,514.634 186.958,514.301 188.5,513.5C 188.5,514.167 188.833,514.5 189.5,514.5C 188.688,515.993 187.355,516.66 185.5,516.5C 184.228,516.43 183.062,516.097 182,515.5C 181.333,511.833 181.333,508.167 182,504.5C 185.135,501.743 187.969,502.077 190.5,505.5C 191.466,507.396 191.799,509.396 191.5,511.5 Z"/></g>
<g><path style="opacity:1" fill="#29317e" d="M 187.5,507.5 C 189,508.625 190.333,509.959 191.5,511.5C 191.715,513.179 191.048,514.179 189.5,514.5C 188.833,514.5 188.5,514.167 188.5,513.5C 188.167,511.5 187.833,509.5 187.5,507.5 Z"/></g>
<g><path style="opacity:1" fill="#646464" d="M 1135.5,499.5 C 1138.12,499.232 1140.62,499.565 1143,500.5C 1142.7,504.038 1142.87,507.538 1143.5,511C 1142.93,513.627 1141.26,514.794 1138.5,514.5C 1135.49,514.821 1134.15,513.488 1134.5,510.5C 1136.5,510.833 1138.5,511.167 1140.5,511.5C 1140.37,509.8 1139.71,508.3 1138.5,507C 1139.17,505.667 1139.83,504.333 1140.5,503C 1140.17,502.5 1139.83,502 1139.5,501.5C 1138.15,502.95 1136.48,503.617 1134.5,503.5C 1134.43,502.041 1134.77,500.708 1135.5,499.5 Z"/></g>
<g><path style="opacity:1" fill="#cbccd3" d="M 187.5,507.5 C 187.833,509.5 188.167,511.5 188.5,513.5C 186.958,514.301 185.292,514.634 183.5,514.5C 183.5,511.5 183.5,508.5 183.5,505.5C 185.483,505.157 186.817,505.824 187.5,507.5 Z"/></g>
<g><path style="opacity:1" fill="#fedcdd" d="M 443.5,513.5 C 443.833,513.5 444.167,513.5 444.5,513.5C 444.5,513.833 444.5,514.167 444.5,514.5C 444.5,550.833 444.5,587.167 444.5,623.5C 445.833,623.5 447.167,623.5 448.5,623.5C 448.737,624.791 448.404,625.791 447.5,626.5C 446.817,624.824 445.483,624.157 443.5,624.5C 443.5,587.5 443.5,550.5 443.5,513.5 Z"/></g>
<g><path style="opacity:1" fill="#e15050" d="M 443.5,487.5 C 443.5,488.167 443.5,488.833 443.5,489.5C 442.833,534.167 442.167,578.833 441.5,623.5C 440.838,577.821 441.505,532.488 443.5,487.5 Z"/></g>
<g><path style="opacity:1" fill="#3c4291" d="M 194.5,520.5 C 196.433,521.642 197.933,523.308 199,525.5C 199.688,526.332 199.521,526.998 198.5,527.5C 196.4,525.636 195.067,523.303 194.5,520.5 Z"/></g>
<g><path style="opacity:1" fill="#383e91" d="M 202.5,533.5 C 204.483,534.902 206.149,536.736 207.5,539C 207,539.5 206.5,540 206,540.5C 204.121,538.473 202.954,536.14 202.5,533.5 Z"/></g>
<g><path style="opacity:1" fill="#343c90" d="M 210.5,546.5 C 212.809,547.388 214.476,549.054 215.5,551.5C 215.167,551.833 214.833,552.167 214.5,552.5C 212.663,550.824 211.33,548.824 210.5,546.5 Z"/></g>
<g><path style="opacity:1" fill="#333b8e" d="M 218.5,558.5 C 220.624,559.031 222.124,560.365 223,562.5C 223.667,563.5 223.667,564.5 223,565.5C 221.25,563.266 219.75,560.932 218.5,558.5 Z"/></g>
<g><path style="opacity:1" fill="#757575" d="M 829.5,566.5 C 830.787,567.871 831.453,569.705 831.5,572C 831.167,573.833 830.833,575.667 830.5,577.5C 829.511,573.893 829.177,570.226 829.5,566.5 Z"/></g>
<g><path style="opacity:1" fill="#505050" d="M 875.5,572.5 C 876.684,569.139 878.517,566.139 881,563.5C 880.221,567.044 878.387,570.044 875.5,572.5 Z"/></g>
<g><path style="opacity:1" fill="#424242" d="M 890.5,567.5 C 892.223,566.193 894.057,566.193 896,567.5C 896.667,570.167 896.667,572.833 896,575.5C 894.33,577.698 892.33,578.032 890,576.5C 889.798,578.256 889.298,579.922 888.5,581.5C 887.167,576.5 887.167,571.5 888.5,566.5C 889.183,566.863 889.85,567.196 890.5,567.5 Z"/></g>
<g><path style="opacity:1" fill="#f4f4f4" d="M 890.5,567.5 C 891.822,567.33 892.989,567.663 894,568.5C 894.667,570.833 894.667,573.167 894,575.5C 892.413,576.727 891.079,576.394 890,574.5C 889.297,572.071 889.463,569.738 890.5,567.5 Z"/></g>
<g><path style="opacity:1" fill="#545454" d="M 848.5,562.5 C 854.488,562.664 855.821,565.164 852.5,570C 856.037,571.826 856.371,574.16 853.5,577C 850.107,578.168 847.441,577.334 845.5,574.5C 845.833,574.167 846.167,573.833 846.5,573.5C 848.942,576.132 851.275,576.132 853.5,573.5C 852.528,571.364 850.861,570.197 848.5,570C 851.876,569.693 853.21,567.86 852.5,564.5C 850.173,564.247 848.173,564.914 846.5,566.5C 846.167,566.167 845.833,565.833 845.5,565.5C 846.34,564.265 847.34,563.265 848.5,562.5 Z"/></g>
<g><path style="opacity:1" fill="#d14f4c" d="M 1115.5,481.5 C 1116.83,481.5 1117.5,482.167 1117.5,483.5C 1116.85,551.498 1116.51,619.498 1116.5,687.5C 1117.83,687.5 1119.17,687.5 1120.5,687.5C 1120.6,689.553 1119.93,691.22 1118.5,692.5C 1118.5,691.167 1118.5,689.833 1118.5,688.5C 1116.17,688.5 1113.83,688.5 1111.5,688.5C 1111.5,689.5 1111.5,690.5 1111.5,691.5C 1110.57,690.432 1110.23,689.099 1110.5,687.5C 1111.5,687.5 1112.5,687.5 1113.5,687.5C 1113.5,672.833 1113.5,658.167 1113.5,643.5C 1114.64,607.004 1115.31,570.338 1115.5,533.5C 1115.5,516.833 1115.5,500.167 1115.5,483.5C 1115.5,482.833 1115.5,482.167 1115.5,481.5 Z"/></g>
<g><path style="opacity:1" fill="#696969" d="M 870.5,562.5 C 871.822,562.33 872.989,562.663 874,563.5C 874.667,566.167 874.667,568.833 874,571.5C 870.474,572.832 868.641,571.499 868.5,567.5C 868.437,565.486 869.103,563.819 870.5,562.5 Z"/></g>
<g><path style="opacity:1" fill="#f1f1f1" d="M 870.5,564.5 C 871.496,564.414 872.329,564.748 873,565.5C 873.494,567.134 873.66,568.801 873.5,570.5C 872.5,570.5 871.5,570.5 870.5,570.5C 870.5,568.5 870.5,566.5 870.5,564.5 Z"/></g>
<g><path style="opacity:1" fill="#4c4c4c" d="M 880.5,568.5 C 885.213,568.468 886.713,570.801 885,575.5C 883.688,577.658 882.022,577.991 880,576.5C 879.278,573.739 879.445,571.073 880.5,568.5 Z"/></g>
<g><path style="opacity:1" fill="#f4f4f4" d="M 881.5,569.5 C 882.725,570.152 883.392,571.319 883.5,573C 882.709,577.448 881.709,577.448 880.5,573C 880.648,571.744 880.982,570.577 881.5,569.5 Z"/></g>
<g><path style="opacity:1" fill="#494949" d="M 857.5,563.5 C 860.187,563.336 862.854,563.503 865.5,564C 863.527,564.495 861.527,564.662 859.5,564.5C 859.5,565.833 859.5,567.167 859.5,568.5C 866.486,568.331 868.153,571.164 864.5,577C 862.231,577.758 860.064,577.591 858,576.5C 857.312,575.668 857.479,575.002 858.5,574.5C 860.409,575.348 862.409,575.682 864.5,575.5C 865.175,569.718 862.841,568.051 857.5,570.5C 857.5,568.167 857.5,565.833 857.5,563.5 Z"/></g>
<g><path style="opacity:1" fill="#4b4b4b" d="M 909.5,567.5 C 910.189,566.226 911.023,566.226 912,567.5C 913.593,576.72 915.426,576.72 917.5,567.5C 918.167,566.167 918.833,566.167 919.5,567.5C 918.065,570.643 916.732,573.81 915.5,577C 914.551,577.617 913.718,577.451 913,576.5C 912.1,573.282 910.933,570.282 909.5,567.5 Z"/></g>
<g><path style="opacity:1" fill="#383e91" d="M 227.5,570.5 C 229.624,571.031 231.124,572.365 232,574.5C 232.667,575.5 232.667,576.5 232,577.5C 229.98,575.449 228.48,573.116 227.5,570.5 Z"/></g>
<g><path style="opacity:1" fill="#5f5f5f" d="M 875.5,572.5 C 875.365,575.372 874.031,576.872 871.5,577C 872.733,575.333 874.067,573.833 875.5,572.5 Z"/></g>
<g><path style="opacity:1" fill="#4e4e4e" d="M 900.5,566.5 C 902.792,566.244 904.959,566.577 907,567.5C 907.333,570.167 907.667,572.833 908,575.5C 908.5,576 909,576.5 909.5,577C 906.256,576.911 902.923,576.911 899.5,577C 898.017,571.974 900.017,569.807 905.5,570.5C 905.5,569.5 905.5,568.5 905.5,567.5C 903.508,567.328 901.842,567.995 900.5,569.5C 899.438,568.575 899.438,567.575 900.5,566.5 Z"/></g>
<g><path style="opacity:1" fill="#ececec" d="M 900.5,572.5 C 902.167,572.5 903.833,572.5 905.5,572.5C 905.55,574.59 904.55,575.923 902.5,576.5C 900.889,575.68 900.222,574.346 900.5,572.5 Z"/></g>
<g><path style="opacity:1" fill="#31378b" d="M 237.5,582.5 C 239.033,584.355 240.7,586.188 242.5,588C 242,588.5 241.5,589 241,589.5C 239.859,587.391 238.359,585.558 236.5,584C 237.056,583.617 237.389,583.117 237.5,582.5 Z"/></g>
<g><path style="opacity:1" fill="#494949" d="M 863.5,587.5 C 870.004,587.138 871.671,589.638 868.5,595C 871.589,598.813 870.755,601.313 866,602.5C 862.91,602.661 861.576,601.328 862,598.5C 863.789,600.229 865.956,600.896 868.5,600.5C 869.21,597.14 867.876,595.307 864.5,595C 867.629,594.883 868.795,593.383 868,590.5C 865.925,589.105 864.092,589.438 862.5,591.5C 862.167,591.167 861.833,590.833 861.5,590.5C 862.193,589.482 862.859,588.482 863.5,587.5 Z"/></g>
<g><path style="opacity:1" fill="#494949" d="M 891.5,591.5 C 894.365,591.055 896.865,591.722 899,593.5C 899.218,596.426 899.718,599.26 900.5,602C 899.365,602.749 898.365,602.583 897.5,601.5C 896.948,599.997 896.948,598.331 897.5,596.5C 893.689,596.404 893.689,595.738 897.5,594.5C 895.641,591.981 893.641,591.981 891.5,594.5C 890.438,593.575 890.438,592.575 891.5,591.5 Z"/></g>
<g><path style="opacity:1" fill="#4e4e4e" d="M 837.5,591.5 C 840.259,591.548 843.092,591.882 846,592.5C 846.824,595.882 846.657,599.216 845.5,602.5C 844.513,599.232 844.18,595.898 844.5,592.5C 842.61,592.297 841.11,592.963 840,594.5C 839.818,597.226 839.318,599.893 838.5,602.5C 837.511,598.893 837.177,595.226 837.5,591.5 Z"/></g>
<g><path style="opacity:1" fill="#505050" d="M 878.5,591.5 C 881.007,591.805 883.674,591.971 886.5,592C 888.991,594.968 889.157,598.135 887,601.5C 885,602.833 883,602.833 881,601.5C 880.798,603.256 880.298,604.922 879.5,606.5C 878.506,601.544 878.173,596.544 878.5,591.5 Z"/></g>
<g><path style="opacity:1" fill="#e8e8e8" d="M 882.5,592.5 C 883.822,592.33 884.989,592.663 886,593.5C 887.031,596.683 886.365,599.349 884,601.5C 879.967,599.164 879.467,596.164 882.5,592.5 Z"/></g>
<g><path style="opacity:1" fill="#3f3f3f" d="M 890.5,596.5 C 894.099,596.262 894.433,597.262 891.5,599.5C 892.381,600.971 893.714,601.804 895.5,602C 891.075,602.956 889.408,601.123 890.5,596.5 Z"/></g>
<g><path style="opacity:1" fill="#323a8e" d="M 246.5,594.5 C 248.193,595.475 249.693,596.808 251,598.5C 251.688,599.332 251.521,599.998 250.5,600.5C 248.663,598.824 247.33,596.824 246.5,594.5 Z"/></g>
<g><path style="opacity:1" fill="#fecccb" d="M 1115.5,533.5 C 1115.31,570.338 1114.64,607.004 1113.5,643.5C 1113.19,606.653 1113.85,569.987 1115.5,533.5 Z"/></g>
<g><path style="opacity:1" fill="#4d4d4d" d="M 901.5,591.5 C 902.497,591.47 903.164,591.97 903.5,593C 904.333,595.5 905.167,598 906,600.5C 906.875,597.372 908.042,594.372 909.5,591.5C 909.833,592 910.167,592.5 910.5,593C 908.993,596.021 907.993,599.188 907.5,602.5C 906.325,602.719 905.325,602.386 904.5,601.5C 903.091,598.273 902.091,594.94 901.5,591.5 Z"/></g>
<g><path style="opacity:1" fill="#404697" d="M 256.5,605.5 C 259.532,606.999 261.032,609.332 261,612.5C 259.167,610.667 257.333,608.833 255.5,607C 256.056,606.617 256.389,606.117 256.5,605.5 Z"/></g>
<g><path style="opacity:1" fill="#394095" d="M 266.5,617.5 C 269.787,618.273 271.287,620.273 271,623.5C 268.873,621.886 267.373,619.886 266.5,617.5 Z"/></g>
<g><path style="opacity:1" fill="#ec2823" d="M 441.5,624.5 C 442.167,624.5 442.833,624.5 443.5,624.5C 445.483,624.157 446.817,624.824 447.5,626.5C 446.193,629.725 445.193,633.059 444.5,636.5C 443.609,637.11 442.609,637.443 441.5,637.5C 439.721,633.405 438.388,629.072 437.5,624.5C 438.833,624.5 440.167,624.5 441.5,624.5 Z"/></g>
<g><path style="opacity:1" fill="#3c4195" d="M 276.5,629.5 C 276.897,628.475 277.563,628.308 278.5,629C 280.019,630.351 281.352,631.851 282.5,633.5C 281.998,634.521 281.332,634.688 280.5,634C 278.93,632.603 277.596,631.103 276.5,629.5 Z"/></g>
<g><path style="opacity:1" fill="#db645e" d="M 444.5,636.5 C 444.108,638.179 443.608,639.846 443,641.5C 441.812,640.437 441.312,639.103 441.5,637.5C 442.609,637.443 443.609,637.11 444.5,636.5 Z"/></g>
<g><path style="opacity:1" fill="#283085" d="M 287.5,638.5 C 289.63,640.127 291.63,641.96 293.5,644C 291.583,643.973 289.916,643.139 288.5,641.5C 287.614,640.675 287.281,639.675 287.5,638.5 Z"/></g>
<g><path style="opacity:1" fill="#374193" d="M 298.5,649.5 C 300.886,650.373 302.886,651.873 304.5,654C 301.273,654.287 299.273,652.787 298.5,649.5 Z"/></g>
<g><path style="opacity:1" fill="#333c91" d="M 309.5,659.5 C 311.886,660.373 313.886,661.873 315.5,664C 312.276,664.214 310.276,662.714 309.5,659.5 Z"/></g>
<g><path style="opacity:1" fill="#484848" d="M 352.5,666.5 C 356.257,666.071 359.757,666.737 363,668.5C 363.819,674.832 360.986,677.165 354.5,675.5C 354.799,677.604 354.466,679.604 353.5,681.5C 352.506,676.544 352.173,671.544 352.5,666.5 Z"/></g>
<g><path style="opacity:1" fill="#949494" d="M 394.5,667.5 C 395.209,666.596 396.209,666.263 397.5,666.5C 397.5,670.833 397.5,675.167 397.5,679.5C 397.131,675.232 396.131,671.232 394.5,667.5 Z"/></g>
<g><path style="opacity:1" fill="#474747" d="M 508.5,666.5 C 518.197,666.72 520.864,671.22 516.5,680C 507.319,683.325 503.485,680.158 505,670.5C 506.102,669.051 507.269,667.718 508.5,666.5 Z"/></g>
<g><path style="opacity:1" fill="#404040" d="M 521.5,667.5 C 524.518,667.335 527.518,667.502 530.5,668C 533.167,670.333 533.167,672.667 530.5,675C 528.19,675.497 525.857,675.663 523.5,675.5C 523.799,677.604 523.466,679.604 522.5,681.5C 521.507,676.88 521.173,672.214 521.5,667.5 Z"/></g>
<g><path style="opacity:1" fill="#eeeeee" d="M 354.5,668.5 C 356.527,668.338 358.527,668.505 360.5,669C 361.833,670.667 361.833,672.333 360.5,674C 358.527,674.495 356.527,674.662 354.5,674.5C 354.5,672.5 354.5,670.5 354.5,668.5 Z"/></g>
<g><path style="opacity:1" fill="#f8f8f8" d="M 508.5,668.5 C 516.618,668.382 518.618,671.882 514.5,679C 507.495,680.324 504.995,677.49 507,670.5C 507.717,669.956 508.217,669.289 508.5,668.5 Z"/></g>
<g><path style="opacity:1" fill="#efefef" d="M 523.5,668.5 C 525.527,668.338 527.527,668.505 529.5,669C 530.991,671.022 530.658,672.688 528.5,674C 526.866,674.494 525.199,674.66 523.5,674.5C 523.5,672.5 523.5,670.5 523.5,668.5 Z"/></g>
<g><path style="opacity:1" fill="#494949" d="M 422.5,666.5 C 425.325,666.081 427.491,667.081 429,669.5C 429.956,673.572 429.456,677.405 427.5,681C 423.834,682.271 421.334,681.104 420,677.5C 418.946,673.345 419.78,669.678 422.5,666.5 Z"/></g>
<g><path style="opacity:1" fill="#f6f6f6" d="M 422.5,668.5 C 424.144,668.286 425.644,668.62 427,669.5C 427.784,672.76 427.617,675.927 426.5,679C 424.888,679.72 423.388,679.554 422,678.5C 421.253,675.076 421.42,671.743 422.5,668.5 Z"/></g>
<g><path style="opacity:1" fill="#4e4e4e" d="M 463.5,666.5 C 468.35,666.519 470.683,669.019 470.5,674C 470.409,680.114 467.576,682.281 462,680.5C 459.626,675.365 460.126,670.698 463.5,666.5 Z"/></g>
<g><path style="opacity:1" fill="#f7f7f7" d="M 463.5,668.5 C 465.144,668.286 466.644,668.62 468,669.5C 468.667,672.167 468.667,674.833 468,677.5C 466.688,679.658 465.022,679.991 463,678.5C 462.253,675.076 462.42,671.743 463.5,668.5 Z"/></g>
<g><path style="opacity:1" fill="#515151" d="M 474.5,666.5 C 477.368,666.085 479.535,667.085 481,669.5C 481.956,673.572 481.456,677.405 479.5,681C 475.834,682.271 473.334,681.104 472,677.5C 470.946,673.345 471.78,669.678 474.5,666.5 Z"/></g>
<g><path style="opacity:1" fill="#f6f6f6" d="M 474.5,668.5 C 476.144,668.286 477.644,668.62 479,669.5C 479.784,672.76 479.617,675.927 478.5,679C 476.567,679.783 475.067,679.283 474,677.5C 473.366,674.445 473.532,671.445 474.5,668.5 Z"/></g>
<g><path style="opacity:1" fill="#3f4697" d="M 320.5,670.5 C 321.251,669.427 322.251,669.26 323.5,670C 324.685,671.353 326.019,672.52 327.5,673.5C 327.167,673.833 326.833,674.167 326.5,674.5C 324.21,673.533 322.21,672.2 320.5,670.5 Z"/></g>
<g><path style="opacity:1" fill="#4c4c4c" d="M 434.5,666.5 C 439.35,666.519 441.683,669.019 441.5,674C 441.409,680.114 438.576,682.281 433,680.5C 430.622,675.406 431.122,670.739 434.5,666.5 Z"/></g>
<g><path style="opacity:1" fill="#f6f6f6" d="M 434.5,668.5 C 436.144,668.286 437.644,668.62 439,669.5C 439.784,672.76 439.617,675.927 438.5,679C 436.888,679.72 435.388,679.554 434,678.5C 433.253,675.076 433.42,671.743 434.5,668.5 Z"/></g>
<g><path style="opacity:1" fill="#404040" d="M 372.5,675.5 C 372.56,674.957 372.893,674.624 373.5,674.5C 373.961,677.955 374.961,681.122 376.5,684C 374.833,684.667 373.167,684.667 371.5,684C 372.684,682.82 373.351,681.32 373.5,679.5C 373.489,677.955 373.156,676.622 372.5,675.5 Z"/></g>
<g><path style="opacity:1" fill="#484848" d="M 493.5,666.5 C 497.164,666 500.164,667.167 502.5,670C 500.658,669.421 498.658,668.921 496.5,668.5C 494.626,668.39 493.126,669.056 492,670.5C 491.022,673.669 491.522,676.503 493.5,679C 496.758,679.616 499.758,679.283 502.5,678C 499.163,682.028 495.33,682.528 491,679.5C 488.403,674.404 489.236,670.071 493.5,666.5 Z"/></g>
<g><path style="opacity:1" fill="#4b4b4b" d="M 451.5,666.5 C 454.325,666.081 456.491,667.081 458,669.5C 458.956,673.572 458.456,677.405 456.5,681C 452.834,682.271 450.334,681.104 449,677.5C 447.812,673.259 448.645,669.592 451.5,666.5 Z"/></g>
<g><path style="opacity:1" fill="#f7f7f7" d="M 451.5,668.5 C 453.144,668.286 454.644,668.62 456,669.5C 456.784,672.76 456.617,675.927 455.5,679C 453.888,679.72 452.388,679.554 451,678.5C 450.253,675.076 450.42,671.743 451.5,668.5 Z"/></g>
<g><path style="opacity:1" fill="#3b4291" d="M 332.5,678.5 C 335.687,679.509 337.52,681.509 338,684.5C 335.273,683.241 333.439,681.241 332.5,678.5 Z"/></g>
<g><path style="opacity:1" fill="#4d4d4d" d="M 411.5,666.5 C 413.722,666.178 415.556,666.845 417,668.5C 417.667,672.167 417.667,675.833 417,679.5C 414.333,682.167 411.667,682.167 409,679.5C 408.333,676.167 408.333,672.833 409,669.5C 409.698,668.309 410.531,667.309 411.5,666.5 Z"/></g>
<g><path style="opacity:1" fill="#f4f4f4" d="M 411.5,668.5 C 415.319,668.28 416.986,670.113 416.5,674C 416.819,678.313 414.819,680.146 410.5,679.5C 410.244,675.731 410.577,672.064 411.5,668.5 Z"/></g>
<g><path style="opacity:1" fill="#505050" d="M 394.5,667.5 C 396.131,671.232 397.131,675.232 397.5,679.5C 398.675,679.281 399.675,679.614 400.5,680.5C 397.5,681.833 394.5,681.833 391.5,680.5C 392.689,679.571 394.022,679.238 395.5,679.5C 395.82,676.102 395.487,672.768 394.5,669.5C 390.807,670.435 390.807,669.768 394.5,667.5 Z"/></g>
<g><path style="opacity:1" fill="#525252" d="M 403.5,679.5 C 405.337,679.639 405.67,680.306 404.5,681.5C 403.702,681.043 403.369,680.376 403.5,679.5 Z"/></g>
<g><path style="opacity:1" fill="#9d9d9d" d="M 443.5,678.5 C 444.5,678.5 445.5,678.5 446.5,678.5C 446.5,679.5 446.5,680.5 446.5,681.5C 445.5,681.5 444.5,681.5 443.5,681.5C 443.5,680.5 443.5,679.5 443.5,678.5 Z"/></g>
<g><path style="opacity:1" fill="#f1221f" d="M 1118.5,692.5 C 1115.54,706.942 1113.21,706.609 1111.5,691.5C 1111.5,690.5 1111.5,689.5 1111.5,688.5C 1113.83,688.5 1116.17,688.5 1118.5,688.5C 1118.5,689.833 1118.5,691.167 1118.5,692.5 Z"/></g>
<g><path style="opacity:1" fill="#373d8e" d="M 344.5,687.5 C 346.932,688.75 349.266,690.25 351.5,692C 351,692.5 350.5,693 350,693.5C 347.273,692.241 345.439,690.241 344.5,687.5 Z"/></g>
<g><path style="opacity:1" fill="#2e368a" d="M 356.5,696.5 C 358.932,697.75 361.266,699.25 363.5,701C 362.5,701.667 361.5,701.667 360.5,701C 358.365,700.124 357.031,698.624 356.5,696.5 Z"/></g>
<g><path style="opacity:1" fill="#9c9c9c" d="M 1030.5,704.5 C 1030.18,709.363 1030.51,714.03 1031.5,718.5C 1031.44,719.043 1031.11,719.376 1030.5,719.5C 1029.19,714.348 1029.19,709.348 1030.5,704.5 Z"/></g>
<g><path style="opacity:1" fill="#4b4b4b" d="M 1137.5,704.5 C 1138.5,704.5 1139.5,704.5 1140.5,704.5C 1140.5,708.833 1140.5,713.167 1140.5,717.5C 1138.75,718.818 1138.08,718.818 1138.5,717.5C 1138.67,713.818 1138.5,710.152 1138,706.5C 1137.28,707.451 1136.45,707.617 1135.5,707C 1136.38,706.292 1137.05,705.458 1137.5,704.5 Z"/></g>
<g><path style="opacity:1" fill="#424242" d="M 1151.5,704.5 C 1152.89,707.853 1154.22,711.353 1155.5,715C 1154.23,715.9 1153.23,717.066 1152.5,718.5C 1151.61,717.675 1151.28,716.675 1151.5,715.5C 1149.5,715.5 1147.5,715.5 1145.5,715.5C 1146.71,711.423 1148.71,707.757 1151.5,704.5 Z"/></g>
<g><path style="opacity:1" fill="#464646" d="M 1166.5,704.5 C 1169.69,704.02 1172.52,704.686 1175,706.5C 1175.69,707.332 1175.52,707.998 1174.5,708.5C 1171.99,705.048 1169.16,704.714 1166,707.5C 1165.33,710.167 1165.33,712.833 1166,715.5C 1169.29,718.311 1172.29,717.978 1175,714.5C 1175.51,715.996 1175.01,717.163 1173.5,718C 1164.8,719.842 1161.64,716.342 1164,707.5C 1165.04,706.627 1165.88,705.627 1166.5,704.5 Z"/></g>
<g><path style="opacity:1" fill="#525252" d="M 1194.5,704.5 C 1197.52,704.335 1200.52,704.502 1203.5,705C 1205.65,707.075 1205.98,709.408 1204.5,712C 1201.99,713.252 1199.32,713.752 1196.5,713.5C 1196.79,715.288 1196.45,716.955 1195.5,718.5C 1194.51,713.88 1194.17,709.214 1194.5,704.5 Z"/></g>
<g><path style="opacity:1" fill="#484848" d="M 1181.5,704.5 C 1189.49,703.329 1192.99,706.663 1192,714.5C 1191.53,715.931 1190.7,717.097 1189.5,718C 1180.15,720.487 1176.65,716.987 1179,707.5C 1179.7,706.309 1180.53,705.309 1181.5,704.5 Z"/></g>
<g><path style="opacity:1" fill="#f1f1f1" d="M 1183.5,705.5 C 1189.3,705.81 1191.47,708.81 1190,714.5C 1187.29,717.978 1184.29,718.311 1181,715.5C 1180.33,712.833 1180.33,710.167 1181,707.5C 1181.99,706.934 1182.83,706.267 1183.5,705.5 Z"/></g>
<g><path style="opacity:1" fill="#f2f2f2" d="M 1196.5,706.5 C 1198.83,706.5 1201.17,706.5 1203.5,706.5C 1203.5,708.167 1203.5,709.833 1203.5,711.5C 1201.17,711.5 1198.83,711.5 1196.5,711.5C 1196.5,709.833 1196.5,708.167 1196.5,706.5 Z"/></g>
<g><path style="opacity:1" fill="#4d4e51" d="M 1107.5,704.5 C 1110.04,704.104 1112.21,704.771 1114,706.5C 1114.67,709.833 1114.67,713.167 1114,716.5C 1107.65,720.398 1104.49,718.565 1104.5,711C 1104.39,708.288 1105.39,706.122 1107.5,704.5 Z"/></g>
<g><path style="opacity:1" fill="#f1f2f1" d="M 1108.5,705.5 C 1111.95,705.573 1113.28,707.406 1112.5,711C 1112.44,713.642 1111.44,715.809 1109.5,717.5C 1107.08,716.271 1106.08,714.271 1106.5,711.5C 1106.36,709.159 1107.03,707.159 1108.5,705.5 Z"/></g>
<g><path style="opacity:1" fill="#333b8e" d="M 369.5,705.5 C 371.824,706.33 373.824,707.663 375.5,709.5C 375.167,709.833 374.833,710.167 374.5,710.5C 372.054,709.476 370.388,707.809 369.5,705.5 Z"/></g>
<g><path style="opacity:1" fill="#4e4e4e" d="M 1124.5,704.5 C 1130.11,703.079 1132.28,705.079 1131,710.5C 1128.83,712.667 1126.67,714.833 1124.5,717C 1126.83,717.333 1129.17,717.667 1131.5,718C 1128.45,718.821 1125.45,718.655 1122.5,717.5C 1125.25,714.76 1127.58,711.76 1129.5,708.5C 1127.77,704.597 1125.77,704.597 1123.5,708.5C 1123.17,708.167 1122.83,707.833 1122.5,707.5C 1123.19,706.482 1123.86,705.482 1124.5,704.5 Z"/></g>
<g><path style="opacity:1" fill="#e7e7e7" d="M 1150.5,708.5 C 1151.46,710.265 1151.79,712.265 1151.5,714.5C 1150.02,714.762 1148.69,714.429 1147.5,713.5C 1148.26,711.64 1149.26,709.973 1150.5,708.5 Z"/></g>
<g><path style="opacity:1" fill="#6f6f6f" d="M 1069.5,708.5 C 1072.9,708.18 1076.23,708.513 1079.5,709.5C 1077.83,709.833 1076.17,710.167 1074.5,710.5C 1072.36,710.444 1070.69,709.777 1069.5,708.5 Z"/></g>
<g><path style="opacity:1" fill="#4e4e4e" d="M 1095.5,704.5 C 1101.11,703.079 1103.28,705.079 1102,710.5C 1099.83,712.667 1097.67,714.833 1095.5,717C 1097.83,717.333 1100.17,717.667 1102.5,718C 1099.45,718.821 1096.45,718.655 1093.5,717.5C 1096.25,714.76 1098.58,711.76 1100.5,708.5C 1098.77,704.597 1096.77,704.597 1094.5,708.5C 1094.17,708.167 1093.83,707.833 1093.5,707.5C 1094.19,706.482 1094.86,705.482 1095.5,704.5 Z"/></g>
<g><path style="opacity:1" fill="#7f7f7f" d="M 1036.5,706.5 C 1035.17,706.5 1033.83,706.5 1032.5,706.5C 1032.5,708.167 1032.5,709.833 1032.5,711.5C 1033.83,711.5 1035.17,711.5 1036.5,711.5C 1036.5,712.167 1036.83,712.5 1037.5,712.5C 1036.08,713.451 1034.41,713.784 1032.5,713.5C 1032.78,715.415 1032.45,717.081 1031.5,718.5C 1031.5,714.167 1031.5,709.833 1031.5,705.5C 1033.41,705.216 1035.08,705.549 1036.5,706.5 Z"/></g>
<g><path style="opacity:1" fill="#3e3e3e" d="M 1030.5,704.5 C 1033.58,704.26 1036.58,704.593 1039.5,705.5C 1040.64,707.421 1040.81,709.421 1040,711.5C 1039.33,712.252 1038.5,712.586 1037.5,712.5C 1036.83,712.5 1036.5,712.167 1036.5,711.5C 1037.65,711.209 1038.32,710.376 1038.5,709C 1038.32,707.624 1037.65,706.791 1036.5,706.5C 1035.08,705.549 1033.41,705.216 1031.5,705.5C 1031.5,709.833 1031.5,714.167 1031.5,718.5C 1030.51,714.03 1030.18,709.363 1030.5,704.5 Z"/></g>
<g><path style="opacity:1" fill="#fafafa" d="M 1036.5,706.5 C 1037.65,706.791 1038.32,707.624 1038.5,709C 1038.32,710.376 1037.65,711.209 1036.5,711.5C 1035.17,711.5 1033.83,711.5 1032.5,711.5C 1032.5,709.833 1032.5,708.167 1032.5,706.5C 1033.83,706.5 1035.17,706.5 1036.5,706.5 Z"/></g>
<g><path style="opacity:1" fill="#969696" d="M 1054.5,715.5 C 1053.69,717.028 1053.02,718.694 1052.5,720.5C 1051.43,721.434 1050.1,721.768 1048.5,721.5C 1048.92,718.974 1049.09,716.641 1049,714.5C 1051.23,713.02 1053.07,713.353 1054.5,715.5 Z"/></g>
<g><path style="opacity:1" fill="#4a4a4a" d="M 1083.5,704.5 C 1086.36,704.055 1088.86,704.722 1091,706.5C 1091.71,708.367 1091.21,709.867 1089.5,711C 1092.17,713.333 1092.17,715.667 1089.5,718C 1087.5,718.667 1085.5,718.667 1083.5,718C 1082.55,717.282 1082.38,716.449 1083,715.5C 1085.54,718.313 1087.7,718.146 1089.5,715C 1088.77,713.235 1087.43,712.068 1085.5,711.5C 1088.52,710.996 1089.69,709.329 1089,706.5C 1086.96,705.228 1085.12,705.561 1083.5,707.5C 1082.44,706.575 1082.44,705.575 1083.5,704.5 Z"/></g>
<g><path style="opacity:1" fill="#3b4190" d="M 381.5,713.5 C 385.028,714.062 387.028,715.729 387.5,718.5C 384.825,717.479 382.825,715.813 381.5,713.5 Z"/></g>
<g><path style="opacity:1" fill="#878787" d="M 1057.5,715.5 C 1058.96,713.016 1060.63,713.016 1062.5,715.5C 1061,716.052 1059.33,716.052 1057.5,715.5 Z"/></g>
<g><path style="opacity:1" fill="#5f5f5f" d="M 1069.5,713.5 C 1072.9,713.18 1076.23,713.513 1079.5,714.5C 1077.83,714.833 1076.17,715.167 1074.5,715.5C 1072.36,715.444 1070.69,714.777 1069.5,713.5 Z"/></g>
<g><path style="opacity:1" fill="#3f3f3f" d="M 1054.5,715.5 C 1054.26,717.467 1054.59,719.301 1055.5,721C 1054.42,721.47 1053.42,721.303 1052.5,720.5C 1053.02,718.694 1053.69,717.028 1054.5,715.5 Z"/></g>
<g><path style="opacity:1" fill="#3c3c3c" d="M 1117.5,716.5 C 1119.34,716.639 1119.67,717.306 1118.5,718.5C 1117.7,718.043 1117.37,717.376 1117.5,716.5 Z"/></g>
<g><path style="opacity:1" fill="#5c5c5c" d="M 1057.5,715.5 C 1057.34,716.873 1057.51,718.207 1058,719.5C 1059.65,720.217 1061.15,720.55 1062.5,720.5C 1057.04,722.37 1055.37,720.704 1057.5,715.5 Z"/></g>
<g><path style="opacity:1" fill="#3d4291" d="M 394.5,721.5 C 398.028,722.062 400.028,723.729 400.5,726.5C 397.825,725.479 395.825,723.813 394.5,721.5 Z"/></g>
<g><path style="opacity:1" fill="#32398c" d="M 1103.5,720.5 C 1104.64,721.793 1104.31,722.959 1102.5,724C 1100.96,725.187 1099.29,725.52 1097.5,725C 1099.68,723.637 1101.68,722.137 1103.5,720.5 Z"/></g>
<g><path style="opacity:1" fill="#313a8e" d="M 407.5,730.5 C 410.072,729.744 412.405,730.577 414.5,733C 411.793,733.317 409.46,732.484 407.5,730.5 Z"/></g>
<g><path style="opacity:1" fill="#353d90" d="M 1089.5,729.5 C 1090.55,729.351 1091.55,729.517 1092.5,730C 1090.47,732.315 1088.13,733.148 1085.5,732.5C 1086.9,731.479 1088.23,730.479 1089.5,729.5 Z"/></g>
<g><path style="opacity:1" fill="#464b99" d="M 1077.5,736.5 C 1079.03,736.517 1079.53,737.184 1079,738.5C 1077.25,739.627 1075.41,740.627 1073.5,741.5C 1072.48,740.998 1072.31,740.332 1073,739.5C 1074.65,738.601 1076.15,737.601 1077.5,736.5 Z"/></g>
<g><path style="opacity:1" fill="#424895" d="M 420.5,736.5 C 423.303,737.067 425.636,738.4 427.5,740.5C 426.21,741.408 424.877,741.241 423.5,740C 421.937,739.241 420.937,738.074 420.5,736.5 Z"/></g>
<g><path style="opacity:1" fill="#3d4396" d="M 434.5,743.5 C 437.09,744.128 439.423,745.295 441.5,747C 441,747.5 440.5,748 440,748.5C 438.581,747.54 437.081,746.707 435.5,746C 434.748,745.329 434.414,744.496 434.5,743.5 Z"/></g>
<g><path style="opacity:1" fill="#414697" d="M 1064.5,743.5 C 1066.03,743.517 1066.53,744.184 1066,745.5C 1064.25,746.627 1062.41,747.627 1060.5,748.5C 1059.48,747.998 1059.31,747.332 1060,746.5C 1061.65,745.601 1063.15,744.601 1064.5,743.5 Z"/></g>
<g><path style="opacity:1" fill="#373e91" d="M 447.5,750.5 C 450.09,750.918 452.423,751.918 454.5,753.5C 451.382,754.443 449.048,753.443 447.5,750.5 Z"/></g>
<g><path style="opacity:1" fill="#3b4295" d="M 1048.5,751.5 C 1049.68,751.281 1050.68,751.614 1051.5,752.5C 1049.68,754.441 1047.68,755.108 1045.5,754.5C 1046.34,753.265 1047.34,752.265 1048.5,751.5 Z"/></g>
<g><path style="opacity:1" fill="#394092" d="M 461.5,756.5 C 464.09,757.128 466.423,758.295 468.5,760C 465.006,760.92 462.673,759.754 461.5,756.5 Z"/></g>
<g><path style="opacity:1" fill="#353d91" d="M 1036.5,757.5 C 1038.55,757.706 1038.88,758.539 1037.5,760C 1035.85,761.401 1034.19,761.568 1032.5,760.5C 1033.9,759.479 1035.23,758.479 1036.5,757.5 Z"/></g>
<g><path style="opacity:1" fill="#414798" d="M 474.5,764.5 C 477.356,763.102 480.022,763.602 482.5,766C 479.667,766.446 477.001,765.946 474.5,764.5 Z"/></g>
<g><path style="opacity:1" fill="#353c90" d="M 1022.5,763.5 C 1024.55,763.706 1024.88,764.539 1023.5,766C 1021.85,767.401 1020.19,767.568 1018.5,766.5C 1019.9,765.479 1021.23,764.479 1022.5,763.5 Z"/></g>
<g><path style="opacity:1" fill="#30388d" d="M 489.5,768.5 C 491.757,768.962 493.757,769.962 495.5,771.5C 495.167,771.833 494.833,772.167 494.5,772.5C 493.205,771.902 491.872,771.402 490.5,771C 489.748,770.329 489.414,769.496 489.5,768.5 Z"/></g>
<g><path style="opacity:1" fill="#363d8f" d="M 1008.5,769.5 C 1009.68,769.281 1010.68,769.614 1011.5,770.5C 1009.45,772.72 1007.12,773.386 1004.5,772.5C 1005.9,771.479 1007.23,770.479 1008.5,769.5 Z"/></g>
<g><path style="opacity:1" fill="#2f378b" d="M 993.5,775.5 C 994.873,775.343 996.207,775.51 997.5,776C 995.349,777.895 993.016,778.395 990.5,777.5C 991.602,776.824 992.602,776.158 993.5,775.5 Z"/></g>
<g><path style="opacity:1" fill="#2b358d" d="M 503.5,775.5 C 505.503,774.468 507.503,774.802 509.5,776.5C 507.383,777.469 505.383,777.136 503.5,775.5 Z"/></g>
<g><path style="opacity:1" fill="#2c3488" d="M 517.5,779.5 C 520.097,779.643 522.431,780.477 524.5,782C 521.435,782.815 519.102,781.982 517.5,779.5 Z"/></g>
<g><path style="opacity:1" fill="#4c509f" d="M 979.5,780.5 C 980.978,780.238 982.311,780.571 983.5,781.5C 980.982,783.464 978.316,784.13 975.5,783.5C 976.624,782.141 977.958,781.141 979.5,780.5 Z"/></g>
<g><path style="opacity:1" fill="#2e3686" d="M 531.5,785.5 C 533.856,784.32 536.189,784.654 538.5,786.5C 536.115,787.279 533.782,786.946 531.5,785.5 Z"/></g>
<g><path style="opacity:1" fill="#373d8c" d="M 965.5,785.5 C 966.675,785.281 967.675,785.614 968.5,786.5C 966.378,788.115 964.045,788.615 961.5,788C 962.858,787.066 964.192,786.232 965.5,785.5 Z"/></g>
<g><path style="opacity:1" fill="#3e4495" d="M 545.5,788.5 C 548.311,788.826 550.978,789.659 553.5,791C 551.5,791.667 549.5,791.667 547.5,791C 546.244,790.583 545.577,789.75 545.5,788.5 Z"/></g>
<g><path style="opacity:1" fill="#3d4392" d="M 951.5,789.5 C 952.675,789.281 953.675,789.614 954.5,790.5C 952.51,791.873 950.343,792.873 948,793.5C 947.333,792.833 947.333,792.167 948,791.5C 949.302,790.915 950.469,790.249 951.5,789.5 Z"/></g>
<g><path style="opacity:1" fill="#3a4093" d="M 560.5,792.5 C 563.016,792.755 565.35,793.589 567.5,795C 565.5,795.667 563.5,795.667 561.5,795C 560.748,794.329 560.414,793.496 560.5,792.5 Z"/></g>
<g><path style="opacity:1" fill="#383e8d" d="M 936.5,794.5 C 937.873,794.343 939.207,794.51 940.5,795C 937.979,796.803 935.312,797.303 932.5,796.5C 933.949,795.828 935.282,795.161 936.5,794.5 Z"/></g>
<g><path style="opacity:1" fill="#464a9d" d="M 575.5,796.5 C 577.89,796.913 580.223,797.579 582.5,798.5C 580.579,799.641 578.579,799.808 576.5,799C 575.748,798.329 575.414,797.496 575.5,796.5 Z"/></g>
<g><path style="opacity:1" fill="#4e53a1" d="M 922.5,797.5 C 923.675,797.281 924.675,797.614 925.5,798.5C 923.071,800.653 920.404,801.319 917.5,800.5C 918.947,799.065 920.614,798.065 922.5,797.5 Z"/></g>
<g><path style="opacity:1" fill="#414694" d="M 589.5,800.5 C 592.321,800.539 594.988,801.205 597.5,802.5C 595.56,803.528 593.56,803.528 591.5,802.5C 590.287,802.253 589.62,801.586 589.5,800.5 Z"/></g>
<g><path style="opacity:1" fill="#454a95" d="M 906.5,801.5 C 911.596,802.304 911.429,803.304 906,804.5C 905.167,804.167 904.333,803.833 903.5,803.5C 904.602,802.824 905.602,802.158 906.5,801.5 Z"/></g>
<g><path style="opacity:1" fill="#363d90" d="M 604.5,803.5 C 607.157,803.162 609.49,803.829 611.5,805.5C 611,805.833 610.5,806.167 610,806.5C 607.552,806.301 605.719,805.301 604.5,803.5 Z"/></g>
<g><path style="opacity:1" fill="#474d9c" d="M 891.5,804.5 C 897.988,805.034 897.988,806.034 891.5,807.5C 890.5,807.167 889.5,806.833 888.5,806.5C 889.602,805.824 890.602,805.158 891.5,804.5 Z"/></g>
<g><path style="opacity:1" fill="#343b8a" d="M 619.5,806.5 C 622.059,806.39 624.392,807.056 626.5,808.5C 623.506,809.833 621.172,809.166 619.5,806.5 Z"/></g>
<g><path style="opacity:1" fill="#474c9b" d="M 875.5,807.5 C 883.186,807.767 883.353,808.767 876,810.5C 872.993,810.001 872.826,809.001 875.5,807.5 Z"/></g>
<g><path style="opacity:1" fill="#343c92" d="M 634.5,810.5 C 636.693,809.203 639.027,809.203 641.5,810.5C 639.141,811.714 636.808,811.714 634.5,810.5 Z"/></g>
<g><path style="opacity:1" fill="#2f3585" d="M 860.5,810.5 C 867.136,810.275 867.636,810.942 862,812.5C 859.641,812.676 859.141,812.009 860.5,810.5 Z"/></g>
<g><path style="opacity:1" fill="#2c3690" d="M 649.5,811.5 C 651.989,811.298 654.323,811.798 656.5,813C 655.333,813.167 654.167,813.333 653,813.5C 651.319,813.392 650.152,812.725 649.5,811.5 Z"/></g>
<g><path style="opacity:1" fill="#343c87" d="M 844.5,812.5 C 846.924,812.192 849.257,812.526 851.5,813.5C 850.333,813.833 849.167,814.167 848,814.5C 846.319,814.392 845.152,813.725 844.5,812.5 Z"/></g>
<g><path style="opacity:1" fill="#adb4e8" d="M 833.5,814.5 C 834.568,813.566 835.901,813.232 837.5,813.5C 837.5,814.5 837.5,815.5 837.5,816.5C 836.5,816.5 835.5,816.5 834.5,816.5C 837.258,815.033 836.925,814.367 833.5,814.5 Z"/></g>
<g><path style="opacity:1" fill="#3a4199" d="M 663.5,813.5 C 666.247,813.187 668.914,813.52 671.5,814.5C 670.167,814.833 668.833,815.167 667.5,815.5C 665.667,815.415 664.334,814.748 663.5,813.5 Z"/></g>
<g><path style="opacity:1" fill="#273188" d="M 683.5,815.5 C 687.5,816.167 687.5,816.833 683.5,817.5C 682.391,816.71 681.058,816.21 679.5,816C 680.793,815.51 682.127,815.343 683.5,815.5 Z"/></g>
<g><path style="opacity:1" fill="#767bc1" d="M 814.5,815.5 C 817.247,815.187 819.914,815.52 822.5,816.5C 822.291,817.086 821.957,817.586 821.5,818C 819.19,818.497 816.857,818.663 814.5,818.5C 814.5,817.5 814.5,816.5 814.5,815.5 Z"/></g>
<g><path style="opacity:1" fill="#2b3484" d="M 833.5,814.5 C 836.925,814.367 837.258,815.033 834.5,816.5C 832.712,816.785 831.045,816.452 829.5,815.5C 830.689,814.571 832.022,814.238 833.5,814.5 Z"/></g>
<g><path style="opacity:1" fill="#818bd1" d="M 683.5,815.5 C 682.127,815.343 680.793,815.51 679.5,816C 681.058,816.21 682.391,816.71 683.5,817.5C 681.833,817.5 680.167,817.5 678.5,817.5C 678.5,816.5 678.5,815.5 678.5,814.5C 680.415,814.216 682.081,814.549 683.5,815.5 Z"/></g>
<g><path style="opacity:1" fill="#474c8f" d="M 693.5,816.5 C 696.247,816.187 698.914,816.52 701.5,817.5C 700.167,817.833 698.833,818.167 697.5,818.5C 695.667,818.415 694.334,817.748 693.5,816.5 Z"/></g>
<g><path style="opacity:1" fill="#a5abd9" d="M 799.5,817.5 C 802.024,816.2 804.691,816.2 807.5,817.5C 807.376,818.107 807.043,818.44 806.5,818.5C 804.393,817.532 802.059,817.198 799.5,817.5 Z"/></g>
<g><path style="opacity:1" fill="#2d368e" d="M 708.5,817.5 C 711.247,817.187 713.914,817.52 716.5,818.5C 715.167,818.833 713.833,819.167 712.5,819.5C 710.667,819.415 709.334,818.748 708.5,817.5 Z"/></g>
<g><path style="opacity:1" fill="#2c3681" d="M 724.5,818.5 C 726.924,818.192 729.257,818.526 731.5,819.5C 730.333,819.833 729.167,820.167 728,820.5C 726.319,820.392 725.152,819.725 724.5,818.5 Z"/></g>
<g><path style="opacity:1" fill="#4a4f94" d="M 738.5,818.5 C 741.247,818.187 743.914,818.52 746.5,819.5C 745.167,819.833 743.833,820.167 742.5,820.5C 740.667,820.415 739.334,819.748 738.5,818.5 Z"/></g>
<g><path style="opacity:1" fill="#273280" d="M 769.5,818.5 C 771.924,818.192 774.257,818.526 776.5,819.5C 775.333,819.833 774.167,820.167 773,820.5C 771.319,820.392 770.152,819.725 769.5,818.5 Z"/></g>
<g><path style="opacity:1" fill="#5a62b7" d="M 799.5,817.5 C 802.059,817.198 804.393,817.532 806.5,818.5C 805.551,819.152 804.385,819.486 803,819.5C 801.319,819.392 800.152,818.725 799.5,817.5 Z"/></g>
<g><path style="opacity:1" fill="#383d8b" d="M 754.5,818.5 C 756.924,818.192 759.257,818.526 761.5,819.5C 760.333,819.833 759.167,820.167 758,820.5C 756.319,820.392 755.152,819.725 754.5,818.5 Z"/></g>
<g><path style="opacity:1" fill="#8e93d1" d="M 784.5,817.5 C 787.167,817.5 789.833,817.5 792.5,817.5C 792.5,818.5 792.5,819.5 792.5,820.5C 789.833,820.5 787.167,820.5 784.5,820.5C 784.5,819.5 784.5,818.5 784.5,817.5 Z"/></g>
</svg>
