<?xml version="1.0" encoding="UTF-8" standalone="no"?>
<svg
   xmlns:dc="http://purl.org/dc/elements/1.1/"
   xmlns:cc="http://creativecommons.org/ns#"
   xmlns:rdf="http://www.w3.org/1999/02/22-rdf-syntax-ns#"
   xmlns:svg="http://www.w3.org/2000/svg"
   xmlns="http://www.w3.org/2000/svg"
   viewBox="0 0 193.73334 195.60001"
   height="195.60001"
   width="193.73334"
   xml:space="preserve"
   id="svg2"
   version="1.1"><metadata
     id="metadata8"><rdf:RDF><cc:Work
         rdf:about=""><dc:format>image/svg+xml</dc:format><dc:type
           rdf:resource="http://purl.org/dc/dcmitype/StillImage" /></cc:Work></rdf:RDF></metadata><defs
     id="defs6" /><g
     transform="matrix(0.59999999,0,0,0.59999999,0,4.89e-6)"
     id="g10"><g
       id="g12"><path
         id="path14"
         style="fill:#ffffff;fill-opacity:1;fill-rule:nonzero;stroke:none"
         d="M 0,0 H 323 V 326 H 0 Z" /></g><g
       transform="translate(-609,-538)"
       id="g16"><g
         id="g18" /><g
         id="g20"><g
           id="g22"><g
             id="g24"><g
               transform="translate(670.6,721.7)"
               id="g26" /><g
               transform="translate(670.6,721.7)"
               id="g28"><g
                 id="g30"><path
                   id="path32"
                   style="fill:#ffffff;fill-opacity:0;fill-rule:nonzero;stroke:none"
                   d="M 0,6 C 0,0 6,0 6,0 h 68 c 6,0 6,6 6,6 v 28 c 0,6 -6,6 -6,6 H 6 C 0,40 0,34 0,34 Z" /></g><g
                 id="g34"><g
                   id="g36"><g
                     id="g38"><path
                       id="path40"
                       style="fill:none;stroke:#000000;stroke-width:3;stroke-linecap:butt;stroke-linejoin:miter;stroke-miterlimit:4;stroke-dasharray:none;stroke-opacity:0"
                       d="M 0,6 C 0,0 6,0 6,0 h 68 c 6,0 6,6 6,6 v 28 c 0,6 -6,6 -6,6 H 6 C 0,40 0,34 0,34 Z" /></g></g></g></g><g
               id="g42"><g
                 transform="translate(675.6,726.7)"
                 id="g44"><g
                   id="g46"><g
                     transform="matrix(0.02222,0,0,0.02222,29.44,13.850326)"
                     id="g48"><g
                       transform="translate(0,146.7)"
                       id="g50"><g
                         id="g52"><g
                           id="g54"><path
                             id="path56"
                             style="fill:#333333;fill-opacity:1;fill-rule:nonzero;stroke:none"
                             d="M 118,0 V -7.5 -15 c 76,-1 95,-15 95,-78 V -319.5 -546 c 0,-32 -9,-47 -30,-47 -9,0 -33,7 -72,22 v -7 -7 l 180,-91 8,2 v 300 300 c 1,48 18,59 95,59 V -7.5 0 Z" /></g></g></g></g></g></g></g></g></g></g><g
         id="g58"><g
           id="g60"><g
             id="g62"><g
               id="g64"><g
                 id="g66"><g
                   id="g68"><path
                     id="path70"
                     style="fill:none;stroke:#333333;stroke-width:2;stroke-linecap:butt;stroke-linejoin:miter;stroke-miterlimit:4;stroke-dasharray:none;stroke-opacity:1"
                     d="M 700.4,721.7 H 812.2" /></g></g></g><g
               id="g72"><path
                 id="path74"
                 style="fill:#333333;fill-opacity:1;fill-rule:nonzero;stroke:none"
                 d="m 700.5,722.7 h -4.1 v -1 h 4.1 z" /></g><g
               id="g76"><g
                 id="g78"><g
                   id="g80"><path
                     id="path82"
                     style="fill:none;stroke:#333333;stroke-width:0.05;stroke-linecap:butt;stroke-linejoin:miter;stroke-miterlimit:4;stroke-dasharray:none;stroke-opacity:1"
                     d="m 700.5,722.7 h -4.1 v -1 h 4.1 z" /></g></g></g><g
               id="g84"><path
                 id="path86"
                 style="fill:#333333;fill-opacity:1;fill-rule:nonzero;stroke:none"
                 d="m 827.5,721.7 -14.3,4.7 v -9.3 z" /></g><g
               id="g88"><g
                 id="g90"><g
                   id="g92"><path
                     id="path94"
                     style="fill:none;stroke:#333333;stroke-width:2;stroke-linecap:butt;stroke-linejoin:miter;stroke-miterlimit:4;stroke-dasharray:none;stroke-opacity:1"
                     d="m 827.5,721.7 -14.3,4.7 v -9.3 z" /></g></g></g></g></g></g><g
         id="g96"><g
           id="g98"><g
             id="g100"><g
               transform="translate(730.6,721.7)"
               id="g102" /><g
               transform="translate(730.6,721.7)"
               id="g104"><g
                 id="g106"><path
                   id="path108"
                   style="fill:#ffffff;fill-opacity:0;fill-rule:nonzero;stroke:none"
                   d="M 0,6 C 0,0 6,0 6,0 h 68 c 6,0 6,6 6,6 v 28 c 0,6 -6,6 -6,6 H 6 C 0,40 0,34 0,34 Z" /></g><g
                 id="g110"><g
                   id="g112"><g
                     id="g114"><path
                       id="path116"
                       style="fill:none;stroke:#000000;stroke-width:3;stroke-linecap:butt;stroke-linejoin:miter;stroke-miterlimit:4;stroke-dasharray:none;stroke-opacity:0"
                       d="M 0,6 C 0,0 6,0 6,0 h 68 c 6,0 6,6 6,6 v 28 c 0,6 -6,6 -6,6 H 6 C 0,40 0,34 0,34 Z" /></g></g></g></g><g
               id="g118"><g
                 transform="translate(735.6,726.7)"
                 id="g120"><g
                   id="g122"><g
                     transform="matrix(0.02222,0,0,0.02222,29.44,13.850326)"
                     id="g124"><g
                       transform="translate(0,146.7)"
                       id="g126"><g
                         id="g128"><g
                           id="g130"><path
                             id="path132"
                             style="fill:#333333;fill-opacity:1;fill-rule:nonzero;stroke:none"
                             d="m 31,-477 c 23,-122 89,-199 208,-199 104,0 185,77 185,176 0,154 -206,318 -296,424 h 239 c 47,-1 58,-8 95,-66 l 13,5 L 420,0 H 30 v -6 -6 c 98,-114 308,-280 308,-449 0,-84 -56,-141 -141,-141 -70,0 -105,32 -145,130 z" /></g></g></g></g></g></g></g></g></g></g><g
         id="g134"><g
           id="g136"><g
             id="g138"><g
               transform="translate(790.6,721.7)"
               id="g140" /><g
               transform="translate(790.6,721.7)"
               id="g142"><g
                 id="g144"><path
                   id="path146"
                   style="fill:#ffffff;fill-opacity:0;fill-rule:nonzero;stroke:none"
                   d="M 0,6 C 0,0 6,0 6,0 h 68 c 6,0 6,6 6,6 v 28 c 0,6 -6,6 -6,6 H 6 C 0,40 0,34 0,34 Z" /></g><g
                 id="g148"><g
                   id="g150"><g
                     id="g152"><path
                       id="path154"
                       style="fill:none;stroke:#000000;stroke-width:3;stroke-linecap:butt;stroke-linejoin:miter;stroke-miterlimit:4;stroke-dasharray:none;stroke-opacity:0"
                       d="M 0,6 C 0,0 6,0 6,0 h 68 c 6,0 6,6 6,6 v 28 c 0,6 -6,6 -6,6 H 6 C 0,40 0,34 0,34 Z" /></g></g></g></g><g
               id="g156"><g
                 transform="translate(795.6,726.7)"
                 id="g158"><g
                   id="g160"><g
                     transform="matrix(0.02222,0,0,0.02222,29.44,13.850326)"
                     id="g162"><g
                       transform="translate(0,146.7)"
                       id="g164"><g
                         id="g166"><g
                           id="g168"><path
                             id="path170"
                             style="fill:#333333;fill-opacity:1;fill-rule:nonzero;stroke:none"
                             d="m 359,-171 c 0,-104 -68,-170 -206,-159 l -1,-13 c 68,-24 95,-40 126,-69 70,-65 44,-204 -70,-204 -63,0 -108,32 -148,106 l -15,-4 c 30,-102 88,-162 196,-162 93,0 156,55 156,137 0,54 -25,91 -93,138 83,32 124,81 127,182 C 436,-71 304,14 156,14 86,14 43,-8 43,-43 c 0,-21 15,-35 38,-35 36,0 111,68 148,56 74,0 130,-64 130,-149 z" /></g></g></g></g></g></g></g></g></g></g><g
         id="g172"><g
           id="g174"><g
             id="g176"><g
               transform="translate(710.6,740)"
               id="g178" /><g
               transform="translate(710.6,740)"
               id="g180"><g
                 id="g182"><path
                   id="path184"
                   style="fill:#ffffff;fill-opacity:0;fill-rule:nonzero;stroke:none"
                   d="M 0,6 C 0,0 6,0 6,0 h 108 c 6,0 6,6 6,6 v 51.3 c 0,6.03 -6,6.03 -6,6.03 L 6,63.3 C 0,63.33 0,57.33 0,57.33 Z" /></g><g
                 id="g186"><g
                   id="g188"><g
                     id="g190"><path
                       id="path192"
                       style="fill:none;stroke:#000000;stroke-width:3;stroke-linecap:butt;stroke-linejoin:miter;stroke-miterlimit:4;stroke-dasharray:none;stroke-opacity:0"
                       d="M 0,6 C 0,0 6,0 6,0 h 108 c 6,0 6,6 6,6 v 51.3 c 0,6.03 -6,6.03 -6,6.03 L 6,63.3 C 0,63.33 0,57.33 0,57.33 Z" /></g></g></g></g><g
               id="g194"><g
                 transform="translate(715.6,745)"
                 id="g196"><g
                   id="g198"><g
                     transform="matrix(0.02222,0,0,0.02222,8.4,25.410326)"
                     id="g200"><g
                       transform="translate(0,146.7)"
                       id="g202"><g
                         id="g204"><g
                           id="g206"><path
                             id="path208"
                             style="fill:#333333;fill-opacity:1;fill-rule:nonzero;stroke:none"
                             d="M 18,0 V -7.5 -15 c 50,-3 62,-16 62,-75 v -124 -124 c 3,-64 -22,-70 -64,-60 v -8.5 -8.5 c 55,-16 89,-27 138,-45 l 7,2 v 39.5 39.5 c 68,-64 99,-81 145,-81 74,0 118,56 118,150 V -195.5 -81 c 1,49 12,61 61,66 V -7.5 0 H 277 V -7.5 -15 c 49,-3 63,-19 63,-84 V -203.5 -308 c 0,-66 -24,-97 -73,-97 -33,0 -56,12 -103,57 V -207.5 -67 c 0,36 16,49 66,52 V -7.5 0 Z" /></g></g></g><g
                       transform="translate(500,146.7)"
                       id="g210"><g
                         id="g212"><g
                           id="g214" /></g></g></g></g><g
                   id="g216"><g
                     transform="matrix(0.02222,0,0,0.02222,25.06,25.410326)"
                     id="g218"><g
                       transform="translate(0,146.7)"
                       id="g220"><g
                         id="g222"><g
                           id="g224"><path
                             id="path226"
                             style="fill:#333333;fill-opacity:1;fill-rule:nonzero;stroke:none"
                             d="m 5,217 v -8.5 -8.5 c 59,-6 70,-16 70,-69 v -234 -234 c 4,-60 -20,-59 -66,-56 v -8 -8 c 55,-17 90,-30 144,-51 l 6,2 v 38.5 38.5 c 44,-55 88,-79 144,-79 97,0 167,89 167,213 C 470,-102 379,10 260,10 218,10 195,0 159,-33 V 45.5 124 c 1,64 13,74 88,75 v 9 9 z m 154,-551 v 123 123 c 0,30 57,66 104,66 72,0 121,-75 121,-185 0,-117 -49,-193 -123,-193 -46,0 -102,36 -102,66 z" /></g></g></g><g
                       transform="translate(500,146.7)"
                       id="g228"><g
                         id="g230"><g
                           id="g232"><path
                             id="path234"
                             style="fill:#333333;fill-opacity:1;fill-rule:nonzero;stroke:none"
                             d="m 103,-277 c -2,121 56,217 156,218 64,0 107,-29 155,-105 l 16,7 C 388,-49 314,10 218,10 103,10 31,-76 31,-214 c 0,-139 80,-246 209,-246 106,0 163,66 171,183 z m 2,-32 h 204 c -13,-87 -37,-115 -98,-115 -61,0 -95,36 -106,115 z" /></g></g></g><g
                       transform="translate(944,146.7)"
                       id="g236"><g
                         id="g238"><g
                           id="g240"><path
                             id="path242"
                             style="fill:#333333;fill-opacity:1;fill-rule:nonzero;stroke:none"
                             d="m 296,-362 c -18,7 -49,-35 -66,-35 -28,0 -70,50 -70,82 V -202.5 -90 c 2,59 18,73 85,75 V -7.5 0 H 5 V -7.5 -15 c 63,-11 71,-17 71,-69 v -125 -125 c 2,-63 -23,-66 -69,-56 v -8 -8 c 59,-19 95,-32 148,-54 l 5,2 v 46 46 c 49,-72 78,-94 120,-94 34,0 55,20 55,53 0,28 -15,45 -39,45 z" /></g></g></g><g
                       transform="translate(1277,146.7)"
                       id="g244"><g
                         id="g246"><g
                           id="g248"><path
                             id="path250"
                             style="fill:#333333;fill-opacity:1;fill-rule:nonzero;stroke:none"
                             d="m 95,-334 c 3,-68 -26,-64 -75,-56 v -7.5 -7.5 l 155,-55 4,3 v 177.5 177.5 c 1,73 8,82 74,87 V -7.5 0 H 16 V -7.5 -15 c 68,-3 79,-13 79,-87 V -218 Z M 86,-507 H 46 l 147,-148 c 18,-18 27,-23 42,-23 48,2 41,51 5,74 z" /></g></g></g><g
                       transform="translate(1555,146.7)"
                       id="g252"><g
                         id="g254"><g
                           id="g256"><path
                             id="path258"
                             style="fill:#333333;fill-opacity:1;fill-rule:nonzero;stroke:none"
                             d="m 250,-460 c 128,0 220,94 220,226 C 470,-95 374,10 248,10 122,10 29,-90 29,-226 c 0,-138 90,-234 221,-234 z m -131,185 c 0,112 34,257 141,257 75,0 120,-67 120,-181 0,-137 -59,-233 -143,-233 -72,0 -118,62 -118,157 z" /></g></g></g><g
                       transform="translate(2055,146.7)"
                       id="g260"><g
                         id="g262"><g
                           id="g264"><path
                             id="path266"
                             style="fill:#333333;fill-opacity:1;fill-rule:nonzero;stroke:none"
                             d="m 491,-58 v 8 8 L 344,10 340,7 V -25 -57 C 306,-10 268,10 212,10 101,10 27,-77 27,-205 27,-389 199,-536 340,-417 v -78 -78 c 4,-51 -24,-54 -68,-50 v -8 -8 c 64,-17 99,-27 147,-44 l 5,2 v 283.5 283.5 c -2,57 19,60 67,56 z m -240,16 c 41,0 81,-27 89,-60 v -115 -115 c 0,-53 -48,-100 -102,-100 -76,0 -125,74 -125,187 0,123 55,203 138,203 z" /></g></g></g><g
                       transform="translate(2555,146.7)"
                       id="g268"><g
                         id="g270"><g
                           id="g272"><path
                             id="path274"
                             style="fill:#333333;fill-opacity:1;fill-rule:nonzero;stroke:none"
                             d="m 250,-460 c 128,0 220,94 220,226 C 470,-95 374,10 248,10 122,10 29,-90 29,-226 c 0,-138 90,-234 221,-234 z m -131,185 c 0,112 34,257 141,257 75,0 120,-67 120,-181 0,-137 -59,-233 -143,-233 -72,0 -118,62 -118,157 z" /></g></g></g><g
                       transform="translate(3055,146.7)"
                       id="g276"><g
                         id="g278"><g
                           id="g280"><path
                             id="path282"
                             style="fill:#333333;fill-opacity:1;fill-rule:nonzero;stroke:none"
                             d="m 187,-460 c 32,0 69,15 97,20 8,3 12,-15 27,-11 l 4,137 h -15 c -23,-90 -53,-123 -110,-123 -86,0 -99,99 -34,136 66,38 192,91 192,183 C 348,-48 285,10 207,10 178,10 115,-7 88,-8 71,-12 72,7 52,4 v -78 -78 h 16 c 23,102 58,140 127,140 51,0 83,-28 83,-72 0,-55 -70,-85 -110,-108 -85,-49 -117,-88 -117,-144 0,-72 57,-124 136,-124 z" /></g></g></g></g></g></g></g></g></g></g><g
         id="g284"><g
           id="g286"><g
             id="g288"><g
               transform="translate(690.6,600)"
               id="g290" /><g
               transform="translate(690.6,600)"
               id="g292"><g
                 id="g294"><path
                   id="path296"
                   style="fill:#ffffff;fill-opacity:0;fill-rule:nonzero;stroke:none"
                   d="M 0,6 C 0,0 6,0 6,0 h 148 c 6,0 6,6 6,6 v 19.7 c 0,5.96 -6,5.96 -6,5.96 L 6,31.7 C 0,31.66 0,25.66 0,25.66 Z" /></g><g
                 id="g298"><g
                   id="g300"><g
                     id="g302"><path
                       id="path304"
                       style="fill:none;stroke:#000000;stroke-width:3;stroke-linecap:butt;stroke-linejoin:miter;stroke-miterlimit:4;stroke-dasharray:none;stroke-opacity:0"
                       d="M 0,6 C 0,0 6,0 6,0 h 148 c 6,0 6,6 6,6 v 19.7 c 0,5.96 -6,5.96 -6,5.96 L 6,31.7 C 0,31.66 0,25.66 0,25.66 Z" /></g></g></g></g><g
               id="g306"><g
                 transform="translate(695.6,605)"
                 id="g308"><g
                   id="g310"><g
                     transform="matrix(0.02222,0,0,0.02222,67.58,13.290326)"
                     id="g312"><g
                       transform="translate(0,146.7)"
                       id="g314"><g
                         id="g316"><g
                           id="g318"><path
                             id="path320"
                             style="fill:#333333;fill-opacity:1;fill-rule:nonzero;stroke:none"
                             d="m 17,-662 c 224,7 531,-47 530,176 0,92 -54,142 -181,167 l 206,253 c 29,34 49,44 87,47 V -9.5 0 H 498 l -238,-308 -56,2 v 98.5 98.5 c 1,73 13,85 90,90 V -9.5 0 H 17 V -9.5 -19 c 75,-6 85,-16 85,-101 V -336.5 -553 c -1,-73 -11,-82 -85,-90 v -9.5 z m 187,73 v 123 123 c 96,-2 131,-9 177,-34 36,-20 57,-61 57,-111 0,-94 -58,-137 -183,-137 -40,0 -51,8 -51,36 z" /></g></g></g></g></g></g></g></g></g></g><g
         id="g322"><g
           id="g324"><g
             id="g326"><g
               id="g328"><g
                 id="g330"><g
                   id="g332"><path
                     id="path334"
                     style="fill:none;stroke:#1aff1f;stroke-width:2;stroke-linecap:butt;stroke-linejoin:miter;stroke-miterlimit:4;stroke-dasharray:none;stroke-opacity:1"
                     d="M 830.7,719 V 658.5" /></g></g></g><g
               id="g336"><g
                 id="g338"><g
                   id="g340"><path
                     id="path342"
                     style="fill:none;stroke:#1aff1f;stroke-width:2;stroke-linecap:butt;stroke-linejoin:miter;stroke-miterlimit:4;stroke-dasharray:none;stroke-opacity:1"
                     d="m 830.7,719 v 1" /></g></g></g><g
               id="g344"><path
                 id="path346"
                 style="fill:#1aff1f;fill-opacity:1;fill-rule:nonzero;stroke:none"
                 d="m 830.7,643.2 4.6,14.3 h -9.2 z" /></g><g
               id="g348"><g
                 id="g350"><g
                   id="g352"><path
                     id="path354"
                     style="fill:none;stroke:#1aff1f;stroke-width:2;stroke-linecap:butt;stroke-linejoin:miter;stroke-miterlimit:4;stroke-dasharray:none;stroke-opacity:1"
                     d="m 830.7,643.2 4.6,14.3 h -9.2 z" /></g></g></g></g></g></g><g
         id="g356"><g
           id="g358"><g
             id="g360"><g
               id="g362"><g
                 id="g364"><g
                   id="g366"><path
                     id="path368"
                     style="fill:none;stroke:#1aff1f;stroke-width:2;stroke-linecap:butt;stroke-linejoin:miter;stroke-miterlimit:4;stroke-dasharray:none;stroke-opacity:1"
                     d="M 770.7,719 V 658.5" /></g></g></g><g
               id="g370"><g
                 id="g372"><g
                   id="g374"><path
                     id="path376"
                     style="fill:none;stroke:#1aff1f;stroke-width:2;stroke-linecap:butt;stroke-linejoin:miter;stroke-miterlimit:4;stroke-dasharray:none;stroke-opacity:1"
                     d="m 770.7,719 v 1" /></g></g></g><g
               id="g378"><path
                 id="path380"
                 style="fill:#1aff1f;fill-opacity:1;fill-rule:nonzero;stroke:none"
                 d="m 770.7,643.2 4.6,14.3 h -9.2 z" /></g><g
               id="g382"><g
                 id="g384"><g
                   id="g386"><path
                     id="path388"
                     style="fill:none;stroke:#1aff1f;stroke-width:2;stroke-linecap:butt;stroke-linejoin:miter;stroke-miterlimit:4;stroke-dasharray:none;stroke-opacity:1"
                     d="m 770.7,643.2 4.6,14.3 h -9.2 z" /></g></g></g></g></g></g><g
         id="g390"><g
           id="g392"><g
             id="g394"><g
               id="g396"><g
                 id="g398"><g
                   id="g400"><path
                     id="path402"
                     style="fill:none;stroke:#1aff1f;stroke-width:2;stroke-linecap:butt;stroke-linejoin:miter;stroke-miterlimit:4;stroke-dasharray:none;stroke-opacity:1"
                     d="M 710.7,719 V 658.5" /></g></g></g><g
               id="g404"><g
                 id="g406"><g
                   id="g408"><path
                     id="path410"
                     style="fill:none;stroke:#1aff1f;stroke-width:2;stroke-linecap:butt;stroke-linejoin:miter;stroke-miterlimit:4;stroke-dasharray:none;stroke-opacity:1"
                     d="m 710.7,719 v 1" /></g></g></g><g
               id="g412"><path
                 id="path414"
                 style="fill:#1aff1f;fill-opacity:1;fill-rule:nonzero;stroke:none"
                 d="m 710.7,643.2 4.6,14.3 h -9.2 z" /></g><g
               id="g416"><g
                 id="g418"><g
                   id="g420"><path
                     id="path422"
                     style="fill:none;stroke:#1aff1f;stroke-width:2;stroke-linecap:butt;stroke-linejoin:miter;stroke-miterlimit:4;stroke-dasharray:none;stroke-opacity:1"
                     d="m 710.7,643.2 4.6,14.3 h -9.2 z" /></g></g></g></g></g></g><g
         id="g424"><g
           id="g426"><g
             id="g428"><g
               id="g430"><g
                 id="g432"><g
                   id="g434"><path
                     id="path436"
                     style="fill:none;stroke:#333333;stroke-width:2;stroke-linecap:butt;stroke-linejoin:miter;stroke-miterlimit:4;stroke-dasharray:none;stroke-opacity:1"
                     d="m 829.7,640 h -3 m -3.9,0 h -5.9 m -4,0 H 807 m -3.9,0 h -5.9 m -3.9,0 h -5.9 m -4,0 h -5.9 m -3.9,0 h -5.9 m -3.9,0 h -5.9 m -4,0 H 748 m -3.9,0 h -5.9 m -3.9,0 h -5.9 m -4,0 h -5.9 m -3.9,0 h -2.9" /></g></g></g><g
               id="g438"><g
                 id="g440"><g
                   id="g442"><path
                     id="path444"
                     style="fill:none;stroke:#333333;stroke-width:2;stroke-linecap:butt;stroke-linejoin:miter;stroke-miterlimit:4;stroke-dasharray:none;stroke-opacity:1"
                     d="m 829.7,640 h 1" /></g></g></g><g
               id="g446"><g
                 id="g448"><g
                   id="g450"><path
                     id="path452"
                     style="fill:none;stroke:#333333;stroke-width:2;stroke-linecap:butt;stroke-linejoin:miter;stroke-miterlimit:4;stroke-dasharray:none;stroke-opacity:1"
                     d="m 711.7,640 h -1" /></g></g></g></g></g></g></g><g
       transform="scale(1,-1)"
       id="g454" /></g></svg>