<?xml version="1.0" encoding="UTF-8" standalone="no"?>
<svg
   xmlns:dc="http://purl.org/dc/elements/1.1/"
   xmlns:cc="http://creativecommons.org/ns#"
   xmlns:rdf="http://www.w3.org/1999/02/22-rdf-syntax-ns#"
   xmlns:svg="http://www.w3.org/2000/svg"
   xmlns="http://www.w3.org/2000/svg"
   viewBox="0 0 421.73334 326.93332"
   height="326.93332"
   width="421.73334"
   xml:space="preserve"
   id="svg2"
   version="1.1"><metadata
     id="metadata8"><rdf:RDF><cc:Work
         rdf:about=""><dc:format>image/svg+xml</dc:format><dc:type
           rdf:resource="http://purl.org/dc/dcmitype/StillImage" /></cc:Work></rdf:RDF></metadata><defs
     id="defs6" /><g
     transform="matrix(0.59999999,0,0,0.59999999,0,4.84e-6)"
     id="g10"><g
       id="g12"><path
         id="path14"
         style="fill:#ffffff;fill-opacity:1;fill-rule:nonzero;stroke:none"
         d="M 0,0 H 703 V 545 H 0 Z" /></g><g
       transform="translate(-98,51)"
       id="g16"><g
         id="g18" /><g
         id="g20"><g
           id="g22"><g
             id="g24"><g
               id="g26"><g
                 id="g28"><g
                   id="g30"><path
                     id="path32"
                     style="fill:none;stroke:#333333;stroke-width:2;stroke-linecap:butt;stroke-linejoin:miter;stroke-miterlimit:4;stroke-dasharray:none;stroke-opacity:1"
                     d="M 201,200 H 693.9" /></g></g></g><g
               id="g34"><path
                 id="path36"
                 style="fill:#333333;fill-opacity:1;fill-rule:nonzero;stroke:none"
                 d="m 201,201 h -4 v -1 h 4 z" /></g><g
               id="g38"><g
                 id="g40"><g
                   id="g42"><path
                     id="path44"
                     style="fill:none;stroke:#333333;stroke-width:0.05;stroke-linecap:butt;stroke-linejoin:miter;stroke-miterlimit:4;stroke-dasharray:none;stroke-opacity:1"
                     d="m 201,201 h -4 v -1 h 4 z" /></g></g></g><g
               id="g46"><path
                 id="path48"
                 style="fill:#333333;fill-opacity:1;fill-rule:nonzero;stroke:none"
                 d="m 709.2,200 -14.3,4.6 v -9.2 z" /></g><g
               id="g50"><g
                 id="g52"><g
                   id="g54"><path
                     id="path56"
                     style="fill:none;stroke:#333333;stroke-width:2;stroke-linecap:butt;stroke-linejoin:miter;stroke-miterlimit:4;stroke-dasharray:none;stroke-opacity:1"
                     d="m 709.2,200 -14.3,4.6 v -9.2 z" /></g></g></g></g></g></g><g
         id="g58"><g
           id="g60"><g
             id="g62"><g
               transform="translate(160,199.9)"
               id="g64" /><g
               transform="translate(160,199.9)"
               id="g66"><g
                 id="g68"><path
                   id="path70"
                   style="fill:#ffffff;fill-opacity:0;fill-rule:nonzero;stroke:none"
                   d="M 0,6 C 0,0 6,0 6,0 h 68 c 6,0 6,6 6,6 v 28 c 0,6 -6,6 -6,6 H 6 C 0,40 0,34 0,34 Z" /></g><g
                 id="g72"><g
                   id="g74"><g
                     id="g76"><path
                       id="path78"
                       style="fill:none;stroke:#000000;stroke-width:3;stroke-linecap:butt;stroke-linejoin:miter;stroke-miterlimit:4;stroke-dasharray:none;stroke-opacity:0"
                       d="M 0,6 C 0,0 6,0 6,0 h 68 c 6,0 6,6 6,6 v 28 c 0,6 -6,6 -6,6 H 6 C 0,40 0,34 0,34 Z" /></g></g></g></g><g
               id="g80"><g
                 transform="translate(165,204.9)"
                 id="g82"><g
                   id="g84"><g
                     transform="matrix(0.02222,0,0,0.02222,29.44,11.661656)"
                     id="g86"><g
                       transform="translate(0,245.2)"
                       id="g88"><g
                         id="g90"><g
                           id="g92"><path
                             id="path94"
                             style="fill:#333333;fill-opacity:1;fill-rule:nonzero;stroke:none"
                             d="m 24,-336 c 0,-175 60,-340 230,-340 131,0 222,141 222,346 C 476,-150 417,14 250,14 82,14 24,-156 24,-336 Z m 227,-314 c -86,0 -131,110 -131,323 0,208 44,315 130,315 86,0 130,-107 130,-316 0,-209 -45,-322 -129,-322 z" /></g></g></g></g></g></g></g></g></g></g><g
         id="g96"><g
           id="g98"><g
             id="g100"><g
               transform="translate(220,199.9)"
               id="g102" /><g
               transform="translate(220,199.9)"
               id="g104"><g
                 id="g106"><path
                   id="path108"
                   style="fill:#ffffff;fill-opacity:0;fill-rule:nonzero;stroke:none"
                   d="M 0,6 C 0,0 6,0 6,0 h 68 c 6,0 6,6 6,6 v 28 c 0,6 -6,6 -6,6 H 6 C 0,40 0,34 0,34 Z" /></g><g
                 id="g110"><g
                   id="g112"><g
                     id="g114"><path
                       id="path116"
                       style="fill:none;stroke:#000000;stroke-width:3;stroke-linecap:butt;stroke-linejoin:miter;stroke-miterlimit:4;stroke-dasharray:none;stroke-opacity:0"
                       d="M 0,6 C 0,0 6,0 6,0 h 68 c 6,0 6,6 6,6 v 28 c 0,6 -6,6 -6,6 H 6 C 0,40 0,34 0,34 Z" /></g></g></g></g><g
               id="g118"><g
                 transform="translate(225,204.9)"
                 id="g120"><g
                   id="g122"><g
                     transform="matrix(0.02222,0,0,0.02222,29.44,11.661656)"
                     id="g124"><g
                       transform="translate(0,245.2)"
                       id="g126"><g
                         id="g128"><g
                           id="g130"><path
                             id="path132"
                             style="fill:#333333;fill-opacity:1;fill-rule:nonzero;stroke:none"
                             d="M 118,0 V -7.5 -15 c 76,-1 95,-15 95,-78 V -319.5 -546 c 0,-32 -9,-47 -30,-47 -9,0 -33,7 -72,22 v -7 -7 l 180,-91 8,2 v 300 300 c 1,48 18,59 95,59 V -7.5 0 Z" /></g></g></g></g></g></g></g></g></g></g><g
         id="g134"><g
           id="g136"><g
             id="g138"><g
               transform="translate(280,200)"
               id="g140" /><g
               transform="translate(280,200)"
               id="g142"><g
                 id="g144"><path
                   id="path146"
                   style="fill:#ffffff;fill-opacity:0;fill-rule:nonzero;stroke:none"
                   d="M 0,6 C 0,0 6,0 6,0 h 68 c 6,0 6,6 6,6 v 28 c 0,6 -6,6 -6,6 H 6 C 0,40 0,34 0,34 Z" /></g><g
                 id="g148"><g
                   id="g150"><g
                     id="g152"><path
                       id="path154"
                       style="fill:none;stroke:#000000;stroke-width:3;stroke-linecap:butt;stroke-linejoin:miter;stroke-miterlimit:4;stroke-dasharray:none;stroke-opacity:0"
                       d="M 0,6 C 0,0 6,0 6,0 h 68 c 6,0 6,6 6,6 v 28 c 0,6 -6,6 -6,6 H 6 C 0,40 0,34 0,34 Z" /></g></g></g></g><g
               id="g156"><g
                 transform="translate(285,205)"
                 id="g158"><g
                   id="g160"><g
                     transform="matrix(0.02222,0,0,0.02222,29.44,11.661656)"
                     id="g162"><g
                       transform="translate(0,245.2)"
                       id="g164"><g
                         id="g166"><g
                           id="g168"><path
                             id="path170"
                             style="fill:#333333;fill-opacity:1;fill-rule:nonzero;stroke:none"
                             d="m 31,-477 c 23,-122 89,-199 208,-199 104,0 185,77 185,176 0,154 -206,318 -296,424 h 239 c 47,-1 58,-8 95,-66 l 13,5 L 420,0 H 30 v -6 -6 c 98,-114 308,-280 308,-449 0,-84 -56,-141 -141,-141 -70,0 -105,32 -145,130 z" /></g></g></g></g></g></g></g></g></g></g><g
         id="g172"><g
           id="g174"><g
             id="g176"><g
               transform="translate(340,199.9)"
               id="g178" /><g
               transform="translate(340,199.9)"
               id="g180"><g
                 id="g182"><path
                   id="path184"
                   style="fill:#ffffff;fill-opacity:0;fill-rule:nonzero;stroke:none"
                   d="M 0,6 C 0,0 6,0 6,0 h 68 c 6,0 6,6 6,6 v 28 c 0,6 -6,6 -6,6 H 6 C 0,40 0,34 0,34 Z" /></g><g
                 id="g186"><g
                   id="g188"><g
                     id="g190"><path
                       id="path192"
                       style="fill:none;stroke:#000000;stroke-width:3;stroke-linecap:butt;stroke-linejoin:miter;stroke-miterlimit:4;stroke-dasharray:none;stroke-opacity:0"
                       d="M 0,6 C 0,0 6,0 6,0 h 68 c 6,0 6,6 6,6 v 28 c 0,6 -6,6 -6,6 H 6 C 0,40 0,34 0,34 Z" /></g></g></g></g><g
               id="g194"><g
                 transform="translate(345,204.9)"
                 id="g196"><g
                   id="g198"><g
                     transform="matrix(0.02222,0,0,0.02222,29.44,11.661656)"
                     id="g200"><g
                       transform="translate(0,245.2)"
                       id="g202"><g
                         id="g204"><g
                           id="g206"><path
                             id="path208"
                             style="fill:#333333;fill-opacity:1;fill-rule:nonzero;stroke:none"
                             d="m 359,-171 c 0,-104 -68,-170 -206,-159 l -1,-13 c 68,-24 95,-40 126,-69 70,-65 44,-204 -70,-204 -63,0 -108,32 -148,106 l -15,-4 c 30,-102 88,-162 196,-162 93,0 156,55 156,137 0,54 -25,91 -93,138 83,32 124,81 127,182 C 436,-71 304,14 156,14 86,14 43,-8 43,-43 c 0,-21 15,-35 38,-35 36,0 111,68 148,56 74,0 130,-64 130,-149 z" /></g></g></g></g></g></g></g></g></g></g><g
         id="g210"><g
           id="g212"><g
             id="g214"><g
               transform="translate(520,200)"
               id="g216" /><g
               transform="translate(520,200)"
               id="g218"><g
                 id="g220"><path
                   id="path222"
                   style="fill:#ffffff;fill-opacity:0;fill-rule:nonzero;stroke:none"
                   d="M 0,6 C 0,0 6,0 6,0 h 68 c 6,0 6,6 6,6 v 28 c 0,6 -6,6 -6,6 H 6 C 0,40 0,34 0,34 Z" /></g><g
                 id="g224"><g
                   id="g226"><g
                     id="g228"><path
                       id="path230"
                       style="fill:none;stroke:#000000;stroke-width:3;stroke-linecap:butt;stroke-linejoin:miter;stroke-miterlimit:4;stroke-dasharray:none;stroke-opacity:0"
                       d="M 0,6 C 0,0 6,0 6,0 h 68 c 6,0 6,6 6,6 v 28 c 0,6 -6,6 -6,6 H 6 C 0,40 0,34 0,34 Z" /></g></g></g></g><g
               id="g232"><g
                 transform="translate(525,205)"
                 id="g234"><g
                   id="g236"><g
                     transform="matrix(0.02222,0,0,0.02222,20.18,11.661656)"
                     id="g238"><g
                       transform="translate(0,245.2)"
                       id="g240"><g
                         id="g242"><g
                           id="g244"><path
                             id="path246"
                             style="fill:#333333;fill-opacity:1;fill-rule:nonzero;stroke:none"
                             d="M 18,0 V -7.5 -15 c 50,-3 62,-16 62,-75 v -124 -124 c 3,-64 -22,-70 -64,-60 v -8.5 -8.5 c 55,-16 89,-27 138,-45 l 7,2 v 39.5 39.5 c 68,-64 99,-81 145,-81 74,0 118,56 118,150 V -195.5 -81 c 1,49 12,61 61,66 V -7.5 0 H 277 V -7.5 -15 c 49,-3 63,-19 63,-84 V -203.5 -308 c 0,-66 -24,-97 -73,-97 -33,0 -56,12 -103,57 V -207.5 -67 c 0,36 16,49 66,52 V -7.5 0 Z" /></g></g></g><g
                       transform="translate(500,245.2)"
                       id="g248"><g
                         id="g250"><g
                           id="g252"><path
                             id="path254"
                             style="fill:#333333;fill-opacity:1;fill-rule:nonzero;stroke:none"
                             d="m 39,-257 h 246 v 31.5 31.5 H 39 v -31.5 z" /></g></g></g><g
                       transform="translate(833,245.2)"
                       id="g256"><g
                         id="g258"><g
                           id="g260"><path
                             id="path262"
                             style="fill:#333333;fill-opacity:1;fill-rule:nonzero;stroke:none"
                             d="M 118,0 V -7.5 -15 c 76,-1 95,-15 95,-78 V -319.5 -546 c 0,-32 -9,-47 -30,-47 -9,0 -33,7 -72,22 v -7 -7 l 180,-91 8,2 v 300 300 c 1,48 18,59 95,59 V -7.5 0 Z" /></g></g></g></g></g></g></g></g></g></g><g
         id="g264"><g
           id="g266"><g
             id="g268"><g
               transform="translate(660,200)"
               id="g270" /><g
               transform="translate(660,200)"
               id="g272"><g
                 id="g274"><path
                   id="path276"
                   style="fill:#ffffff;fill-opacity:0;fill-rule:nonzero;stroke:none"
                   d="M 0,6 C 0,0 6,0 6,0 h 68 c 6,0 6,6 6,6 v 28 c 0,6 -6,6 -6,6 H 6 C 0,40 0,34 0,34 Z" /></g><g
                 id="g278"><g
                   id="g280"><g
                     id="g282"><path
                       id="path284"
                       style="fill:none;stroke:#000000;stroke-width:3;stroke-linecap:butt;stroke-linejoin:miter;stroke-miterlimit:4;stroke-dasharray:none;stroke-opacity:0"
                       d="M 0,6 C 0,0 6,0 6,0 h 68 c 6,0 6,6 6,6 v 28 c 0,6 -6,6 -6,6 H 6 C 0,40 0,34 0,34 Z" /></g></g></g></g><g
               id="g286"><g
                 transform="translate(665,205)"
                 id="g288"><g
                   id="g290"><g
                     transform="matrix(0.02222,0,0,0.02222,29.44,11.661656)"
                     id="g292"><g
                       transform="translate(0,245.2)"
                       id="g294"><g
                         id="g296"><g
                           id="g298"><path
                             id="path300"
                             style="fill:#333333;fill-opacity:1;fill-rule:nonzero;stroke:none"
                             d="M 18,0 V -7.5 -15 c 50,-3 62,-16 62,-75 v -124 -124 c 3,-64 -22,-70 -64,-60 v -8.5 -8.5 c 55,-16 89,-27 138,-45 l 7,2 v 39.5 39.5 c 68,-64 99,-81 145,-81 74,0 118,56 118,150 V -195.5 -81 c 1,49 12,61 61,66 V -7.5 0 H 277 V -7.5 -15 c 49,-3 63,-19 63,-84 V -203.5 -308 c 0,-66 -24,-97 -73,-97 -33,0 -56,12 -103,57 V -207.5 -67 c 0,36 16,49 66,52 V -7.5 0 Z" /></g></g></g></g></g></g></g></g></g></g><g
         id="g302"><g
           id="g304"><g
             id="g306"><g
               id="g308"><g
                 id="g310"><g
                   id="g312"><path
                     id="path314"
                     style="fill:none;stroke:#ff1818;stroke-width:2;stroke-linecap:butt;stroke-linejoin:miter;stroke-miterlimit:4;stroke-dasharray:none;stroke-opacity:1"
                     d="m 260,241 v 60.5" /></g></g></g><g
               id="g316"><path
                 id="path318"
                 style="fill:#ff1818;fill-opacity:1;fill-rule:nonzero;stroke:none"
                 d="m 261,241 h -2 v -1 h 2 z" /></g><g
               id="g320"><g
                 id="g322"><g
                   id="g324"><path
                     id="path326"
                     style="fill:none;stroke:#ff1818;stroke-width:0.05;stroke-linecap:butt;stroke-linejoin:miter;stroke-miterlimit:4;stroke-dasharray:none;stroke-opacity:1"
                     d="m 261,241 h -2 v -1 h 2 z" /></g></g></g><g
               id="g328"><path
                 id="path330"
                 style="fill:#ff1818;fill-opacity:1;fill-rule:nonzero;stroke:none"
                 d="m 260,316.8 -4.6,-14.3 h 9.2 z" /></g><g
               id="g332"><g
                 id="g334"><g
                   id="g336"><path
                     id="path338"
                     style="fill:none;stroke:#ff1818;stroke-width:2;stroke-linecap:butt;stroke-linejoin:miter;stroke-miterlimit:4;stroke-dasharray:none;stroke-opacity:1"
                     d="m 260,316.8 -4.6,-14.3 h 9.2 z" /></g></g></g></g></g></g><g
         id="g340"><g
           id="g342"><g
             id="g344"><g
               id="g346"><g
                 id="g348"><g
                   id="g350"><path
                     id="path352"
                     style="fill:none;stroke:#ff1818;stroke-width:2;stroke-linecap:butt;stroke-linejoin:miter;stroke-miterlimit:4;stroke-dasharray:none;stroke-opacity:1"
                     d="m 320,241 v 60.5" /></g></g></g><g
               id="g354"><path
                 id="path356"
                 style="fill:#ff1818;fill-opacity:1;fill-rule:nonzero;stroke:none"
                 d="m 321,241 h -2 v -1 h 2 z" /></g><g
               id="g358"><g
                 id="g360"><g
                   id="g362"><path
                     id="path364"
                     style="fill:none;stroke:#ff1818;stroke-width:0.05;stroke-linecap:butt;stroke-linejoin:miter;stroke-miterlimit:4;stroke-dasharray:none;stroke-opacity:1"
                     d="m 321,241 h -2 v -1 h 2 z" /></g></g></g><g
               id="g366"><path
                 id="path368"
                 style="fill:#ff1818;fill-opacity:1;fill-rule:nonzero;stroke:none"
                 d="m 320,316.8 -4.6,-14.3 h 9.2 z" /></g><g
               id="g370"><g
                 id="g372"><g
                   id="g374"><path
                     id="path376"
                     style="fill:none;stroke:#ff1818;stroke-width:2;stroke-linecap:butt;stroke-linejoin:miter;stroke-miterlimit:4;stroke-dasharray:none;stroke-opacity:1"
                     d="m 320,316.8 -4.6,-14.3 h 9.2 z" /></g></g></g></g></g></g><g
         id="g378"><g
           id="g380"><g
             id="g382"><g
               id="g384"><g
                 id="g386"><g
                   id="g388"><path
                     id="path390"
                     style="fill:none;stroke:#ff1818;stroke-width:2;stroke-linecap:butt;stroke-linejoin:miter;stroke-miterlimit:4;stroke-dasharray:none;stroke-opacity:1"
                     d="m 380,241 v 60.5" /></g></g></g><g
               id="g392"><path
                 id="path394"
                 style="fill:#ff1818;fill-opacity:1;fill-rule:nonzero;stroke:none"
                 d="m 381,241 h -2 v -1 h 2 z" /></g><g
               id="g396"><g
                 id="g398"><g
                   id="g400"><path
                     id="path402"
                     style="fill:none;stroke:#ff1818;stroke-width:0.05;stroke-linecap:butt;stroke-linejoin:miter;stroke-miterlimit:4;stroke-dasharray:none;stroke-opacity:1"
                     d="m 381,241 h -2 v -1 h 2 z" /></g></g></g><g
               id="g404"><path
                 id="path406"
                 style="fill:#ff1818;fill-opacity:1;fill-rule:nonzero;stroke:none"
                 d="m 380,316.8 -4.6,-14.3 h 9.2 z" /></g><g
               id="g408"><g
                 id="g410"><g
                   id="g412"><path
                     id="path414"
                     style="fill:none;stroke:#ff1818;stroke-width:2;stroke-linecap:butt;stroke-linejoin:miter;stroke-miterlimit:4;stroke-dasharray:none;stroke-opacity:1"
                     d="m 380,316.8 -4.6,-14.3 h 9.2 z" /></g></g></g></g></g></g><g
         id="g416"><g
           id="g418"><g
             id="g420"><g
               id="g422"><g
                 id="g424"><g
                   id="g426"><path
                     id="path428"
                     style="fill:none;stroke:#ff1818;stroke-width:2;stroke-linecap:butt;stroke-linejoin:miter;stroke-miterlimit:4;stroke-dasharray:none;stroke-opacity:1"
                     d="m 560,241 v 60.5" /></g></g></g><g
               id="g430"><path
                 id="path432"
                 style="fill:#ff1818;fill-opacity:1;fill-rule:nonzero;stroke:none"
                 d="m 561,241 h -2 v -1 h 2 z" /></g><g
               id="g434"><g
                 id="g436"><g
                   id="g438"><path
                     id="path440"
                     style="fill:none;stroke:#ff1818;stroke-width:0.05;stroke-linecap:butt;stroke-linejoin:miter;stroke-miterlimit:4;stroke-dasharray:none;stroke-opacity:1"
                     d="m 561,241 h -2 v -1 h 2 z" /></g></g></g><g
               id="g442"><path
                 id="path444"
                 style="fill:#ff1818;fill-opacity:1;fill-rule:nonzero;stroke:none"
                 d="m 560,316.8 -4.6,-14.3 h 9.2 z" /></g><g
               id="g446"><g
                 id="g448"><g
                   id="g450"><path
                     id="path452"
                     style="fill:none;stroke:#ff1818;stroke-width:2;stroke-linecap:butt;stroke-linejoin:miter;stroke-miterlimit:4;stroke-dasharray:none;stroke-opacity:1"
                     d="m 560,316.8 -4.6,-14.3 h 9.2 z" /></g></g></g></g></g></g><g
         id="g454"><g
           id="g456"><g
             id="g458"><g
               id="g460"><g
                 id="g462"><g
                   id="g464"><path
                     id="path466"
                     style="fill:none;stroke:#ff1818;stroke-width:2;stroke-linecap:butt;stroke-linejoin:miter;stroke-miterlimit:4;stroke-dasharray:none;stroke-opacity:1"
                     d="m 700,241 v 60.5" /></g></g></g><g
               id="g468"><path
                 id="path470"
                 style="fill:#ff1818;fill-opacity:1;fill-rule:nonzero;stroke:none"
                 d="m 701,241 h -2 v -1 h 2 z" /></g><g
               id="g472"><g
                 id="g474"><g
                   id="g476"><path
                     id="path478"
                     style="fill:none;stroke:#ff1818;stroke-width:0.05;stroke-linecap:butt;stroke-linejoin:miter;stroke-miterlimit:4;stroke-dasharray:none;stroke-opacity:1"
                     d="m 701,241 h -2 v -1 h 2 z" /></g></g></g><g
               id="g480"><path
                 id="path482"
                 style="fill:#ff1818;fill-opacity:1;fill-rule:nonzero;stroke:none"
                 d="m 700,316.8 -4.6,-14.3 h 9.2 z" /></g><g
               id="g484"><g
                 id="g486"><g
                   id="g488"><path
                     id="path490"
                     style="fill:none;stroke:#ff1818;stroke-width:2;stroke-linecap:butt;stroke-linejoin:miter;stroke-miterlimit:4;stroke-dasharray:none;stroke-opacity:1"
                     d="m 700,316.8 -4.6,-14.3 h 9.2 z" /></g></g></g></g></g></g><g
         id="g492"><g
           id="g494"><g
             id="g496"><g
               id="g498"><g
                 id="g500"><g
                   id="g502"><path
                     id="path504"
                     style="fill:none;stroke:#333333;stroke-width:2;stroke-linecap:butt;stroke-linejoin:miter;stroke-miterlimit:4;stroke-dasharray:none;stroke-opacity:1"
                     d="m 261,320 h 2.9 m 4,0 h 6 m 4,0 h 5.9 m 4,0 h 6 m 4,0 h 6 m 3.9,0 h 6 m 4,0 h 6 m 3.9,0 h 6 m 4,0 h 6 m 4,0 h 5.9 m 4,0 h 6 m 4,0 h 5.9 m 4,0 h 6 m 4,0 h 5.9 m 4,0 h 6 m 4,0 h 6 m 3.9,0 h 6 m 4,0 h 6 m 3.9,0 h 6 m 4,0 h 6 m 4,0 h 5.9 m 4,0 h 6 m 4,0 h 5.9 m 4,0 h 6 m 4,0 h 5.9 m 4,0 h 6 m 4,0 h 6 m 3.9,0 h 6 m 4,0 h 6 m 3.9,0 h 6 m 4,0 h 6 m 4,0 h 5.9 m 4,0 h 6 m 4,0 h 5.9 m 4,0 h 6 m 4,0 h 5.9 m 4,0 h 6 m 4,0 h 6 m 3.9,0 h 6 m 4,0 h 6 m 3.9,0 h 6 m 4,0 h 6 m 4,0 h 5.9 m 4,0 h 6 m 4,0 h 3" /></g></g></g><g
               id="g506"><g
                 id="g508"><g
                   id="g510"><path
                     id="path512"
                     style="fill:none;stroke:#333333;stroke-width:2;stroke-linecap:butt;stroke-linejoin:miter;stroke-miterlimit:4;stroke-dasharray:none;stroke-opacity:1"
                     d="m 261,320 h -1" /></g></g></g><g
               id="g514"><g
                 id="g516"><g
                   id="g518"><path
                     id="path520"
                     style="fill:none;stroke:#333333;stroke-width:2;stroke-linecap:butt;stroke-linejoin:miter;stroke-miterlimit:4;stroke-dasharray:none;stroke-opacity:1"
                     d="m 699,320 h 1" /></g></g></g></g></g></g><g
         id="g522"><g
           id="g524"><g
             id="g526"><g
               id="g528"><g
                 id="g530"><g
                   id="g532"><path
                     id="path534"
                     style="fill:none;stroke:#333333;stroke-width:2;stroke-linecap:butt;stroke-linejoin:miter;stroke-miterlimit:4;stroke-dasharray:none;stroke-opacity:1"
                     d="m 700,199 v -9.2 m 0,-9.2 v -18.4 m 0,-9.2 v -18.4 m 0,-9.2 V 107 m 0,-9.2 V 79.4 m 0,-9.2 V 61" /></g></g></g><g
               id="g536"><g
                 id="g538"><g
                   id="g540"><path
                     id="path542"
                     style="fill:none;stroke:#333333;stroke-width:2;stroke-linecap:butt;stroke-linejoin:miter;stroke-miterlimit:4;stroke-dasharray:none;stroke-opacity:1"
                     d="m 700,199 v 1" /></g></g></g><g
               id="g544"><g
                 id="g546"><g
                   id="g548"><path
                     id="path550"
                     style="fill:none;stroke:#333333;stroke-width:2;stroke-linecap:butt;stroke-linejoin:miter;stroke-miterlimit:4;stroke-dasharray:none;stroke-opacity:1"
                     d="M 700,61 V 60" /></g></g></g></g></g></g><g
         id="g552"><g
           id="g554"><g
             id="g556"><g
               transform="translate(660,9.999)"
               id="g558" /><g
               transform="translate(660,9.999)"
               id="g560"><g
                 id="g562"><path
                   id="path564"
                   style="fill:#ffffff;fill-opacity:0;fill-rule:nonzero;stroke:none"
                   d="M 0,6 C 0,0 6,0 6,0 h 68 c 6,0 6,6 6,6 v 28 c 0,6 -6,6 -6,6 H 6 C 0,40 0,34 0,34 Z" /></g><g
                 id="g566"><g
                   id="g568"><g
                     id="g570"><path
                       id="path572"
                       style="fill:none;stroke:#000000;stroke-width:3;stroke-linecap:butt;stroke-linejoin:miter;stroke-miterlimit:4;stroke-dasharray:none;stroke-opacity:0"
                       d="M 0,6 C 0,0 6,0 6,0 h 68 c 6,0 6,6 6,6 v 28 c 0,6 -6,6 -6,6 H 6 C 0,40 0,34 0,34 Z" /></g></g></g></g><g
               id="g574"><g
                 transform="translate(665,14.99)"
                 id="g576"><g
                   id="g578"><g
                     transform="matrix(0.02222,0,0,0.02222,25.74,11.661656)"
                     id="g580"><g
                       transform="translate(0,245.2)"
                       id="g582"><g
                         id="g584"><g
                           id="g586"><path
                             id="path588"
                             style="fill:#333333;fill-opacity:1;fill-rule:nonzero;stroke:none"
                             d="m 5,217 v -8.5 -8.5 c 59,-6 70,-16 70,-69 v -234 -234 c 4,-60 -20,-59 -66,-56 v -8 -8 c 55,-17 90,-30 144,-51 l 6,2 v 38.5 38.5 c 44,-55 88,-79 144,-79 97,0 167,89 167,213 C 470,-102 379,10 260,10 218,10 195,0 159,-33 V 45.5 124 c 1,64 13,74 88,75 v 9 9 z m 154,-551 v 123 123 c 0,30 57,66 104,66 72,0 121,-75 121,-185 0,-117 -49,-193 -123,-193 -46,0 -102,36 -102,66 z" /></g></g></g><g
                       transform="translate(500,245.2)"
                       id="g590"><g
                         id="g592"><g
                           id="g594"><path
                             id="path596"
                             style="fill:#333333;fill-opacity:1;fill-rule:nonzero;stroke:none"
                             d="m 116,-450 c -2,-143 47,-233 176,-233 60,0 104,26 104,62 0,23 -18,41 -42,41 -17,0 -30,-9 -45,-36 -37,-69 -110,-44 -110,50 v 58 58 h 123 v 16 16 H 200 v 157 157 c 0,75 11,86 93,89 V -7.5 0 H 33 V -7.5 -15 c 71,-3 83,-14 83,-89 V -261 -418 H 34 v -16 -16 z" /></g></g></g></g></g></g></g></g></g></g><g
         id="g598"><g
           id="g600"><g
             id="g602"><g
               transform="translate(340,328.3)"
               id="g604" /><g
               transform="translate(340,328.3)"
               id="g606"><g
                 id="g608"><path
                   id="path610"
                   style="fill:#ffffff;fill-opacity:0;fill-rule:nonzero;stroke:none"
                   d="M 0,6 C 0,0 6,0 6,0 h 148 c 6,0 6,6 6,6 v 19.7 c 0,5.96 -6,5.96 -6,5.96 L 6,31.7 C 0,31.66 0,25.66 0,25.66 Z" /></g><g
                 id="g612"><g
                   id="g614"><g
                     id="g616"><path
                       id="path618"
                       style="fill:none;stroke:#000000;stroke-width:3;stroke-linecap:butt;stroke-linejoin:miter;stroke-miterlimit:4;stroke-dasharray:none;stroke-opacity:0"
                       d="M 0,6 C 0,0 6,0 6,0 h 148 c 6,0 6,6 6,6 v 19.7 c 0,5.96 -6,5.96 -6,5.96 L 6,31.7 C 0,31.66 0,25.66 0,25.66 Z" /></g></g></g></g><g
               id="g620"><g
                 transform="translate(345,333.3)"
                 id="g622"><g
                   id="g624"><g
                     transform="matrix(0.02222,0,0,0.02222,26.74,11.101656)"
                     id="g626"><g
                       transform="translate(0,245.2)"
                       id="g628"><g
                         id="g630"><g
                           id="g632"><path
                             id="path634"
                             style="fill:#333333;fill-opacity:1;fill-rule:nonzero;stroke:none"
                             d="m 17,-662 c 224,7 531,-47 530,176 0,92 -54,142 -181,167 l 206,253 c 29,34 49,44 87,47 V -9.5 0 H 498 l -238,-308 -56,2 v 98.5 98.5 c 1,73 13,85 90,90 V -9.5 0 H 17 V -9.5 -19 c 75,-6 85,-16 85,-101 V -336.5 -553 c -1,-73 -11,-82 -85,-90 v -9.5 z m 187,73 v 123 123 c 96,-2 131,-9 177,-34 36,-20 57,-61 57,-111 0,-94 -58,-137 -183,-137 -40,0 -51,8 -51,36 z" /></g></g></g><g
                       transform="translate(667,245.2)"
                       id="g636"><g
                         id="g638"><g
                           id="g640" /></g></g></g></g><g
                   id="g642"><g
                     transform="matrix(0.02222,0,0,0.02222,47.12,11.101656)"
                     id="g644"><g
                       transform="translate(0,245.2)"
                       id="g646"><g
                         id="g648"><g
                           id="g650"><path
                             id="path652"
                             style="fill:#333333;fill-opacity:1;fill-rule:nonzero;stroke:none"
                             d="m 528,-433 v 26.5 26.5 H 37 v -26.5 -26.5 z m 0,200 v 26.5 26.5 H 37 v -26.5 -26.5 z" /></g></g></g><g
                       transform="translate(564,245.2)"
                       id="g654"><g
                         id="g656"><g
                           id="g658" /></g></g></g></g><g
                   id="g660"><g
                     transform="matrix(0.02222,0,0,0.02222,65.21,11.101656)"
                     id="g662"><g
                       transform="translate(0,245.2)"
                       id="g664"><g
                         id="g666"><g
                           id="g668"><path
                             id="path670"
                             style="fill:#333333;fill-opacity:1;fill-rule:nonzero;stroke:none"
                             d="m 395,-521 c 0,138 -159,203 -170,357 h -17 c -3,-126 95,-240 95,-362 0,-67 -48,-120 -109,-120 -48,0 -94,30 -94,62 0,19 46,54 38,74 0,25 -16,41 -41,41 -32,0 -48,-21 -48,-62 0,-83 70,-145 162,-145 93,0 184,53 184,155 z M 218,-97 c 30,0 55,24 55,54 0,30 -23,51 -55,51 -31,0 -53,-21 -53,-50 0,-31 23,-55 53,-55 z" /></g></g></g><g
                       transform="translate(444,245.2)"
                       id="g672"><g
                         id="g674"><g
                           id="g676" /></g></g></g></g><g
                   id="g678"><g
                     transform="matrix(0.02222,0,0,0.02222,80.63,11.101656)"
                     id="g680"><g
                       transform="translate(0,245.2)"
                       id="g682"><g
                         id="g684"><g
                           id="g686"><path
                             id="path688"
                             style="fill:#333333;fill-opacity:1;fill-rule:nonzero;stroke:none"
                             d="m 363,-676 c 59,-1 126,33 185,33 20,0 36,-12 42,-33 h 21 l 9,225 h -23 c -26,-114 -98,-185 -215,-185 -145,0 -238,116 -238,298 0,184 78,308 248,308 83,0 149,-30 223,-101 l 18,18 C 573,-32 473,14 360,14 161,14 28,-122 28,-326 28,-526 175,-672 363,-676 Z" /></g></g></g><g
                       transform="translate(653,245.2)"
                       id="g690"><g
                         id="g692"><g
                           id="g694"><path
                             id="path696"
                             style="fill:#333333;fill-opacity:1;fill-rule:nonzero;stroke:none"
                             d="M 355,14 C 172,14 34,-134 34,-331 c 0,-202 136,-345 327,-345 187,-1 327,146 327,349 0,202 -136,341 -333,341 z m 219,-342 c 0,-179 -59,-312 -213,-312 -151,0 -213,138 -213,311 0,172 58,307 211,307 158,0 215,-151 215,-306 z" /></g></g></g><g
                       transform="translate(1362,245.2)"
                       id="g698"><g
                         id="g700"><g
                           id="g702"><path
                             id="path704"
                             style="fill:#333333;fill-opacity:1;fill-rule:nonzero;stroke:none"
                             d="m 542,-481 c 0,152 -155,214 -340,190 v 91 91 c 1,74 15,88 94,90 V -9.5 0 H 16 V -9.5 -19 c 76,-7 84,-16 84,-101 V -336.5 -553 c -1,-73 -10,-82 -84,-90 v -9.5 -9.5 c 228,3 526,-39 526,181 z M 202,-591 v 130 130 c 133,17 231,-27 231,-144 0,-103 -62,-150 -197,-150 -27,0 -34,7 -34,34 z" /></g></g></g><g
                       transform="translate(1918,245.2)"
                       id="g706"><g
                         id="g708"><g
                           id="g710" /></g></g></g></g></g></g></g></g></g><g
         id="g712"><g
           id="g714"><g
             id="g716"><g
               id="g718"><g
                 id="g720"><g
                   id="g722"><path
                     id="path724"
                     style="fill:none;stroke:#0a21b3;stroke-width:2;stroke-linecap:butt;stroke-linejoin:round;stroke-miterlimit:10;stroke-dasharray:none;stroke-opacity:1"
                     d="m 260.5,320.9 5.1,8.6 m 5.2,8.6 5.6,8.6 5.6,8.1 m 6,8 4.1,5.3 7.7,9.2 1,1.1 m 6.8,7.4 7.2,7.2 7.2,6.8 m 7.7,6.5 6.9,5.4 7.2,5.2 2.1,1.3 m 8.5,5.4 3.7,2.2 7.2,3.9 6.8,3.3 m 9.3,4 5.6,2.2 7.4,2.5 6,1.7 m 9.7,2.5 7,1.5 7.9,1.3 5,0.6 m 10,0.9 1.3,0.1 8.4,0.3 8.8,-0.1 1.6,-0.1 m 10,-0.6 6.6,-0.6 9.7,-1.2 3.7,-0.7 m 9.8,-1.9 6.8,-1.5 10.8,-2.8 1.9,-0.7 m 9.6,-2.9 11.6,-4.1 7.3,-3 m 9.2,-3.9 8.5,-3.8 9.6,-5 m 8.9,-4.7 8.5,-4.7 8.8,-5.5 m 8.5,-5.4 11.7,-7.8 4.8,-3.7 m 8.1,-5.9 2.1,-1.5 13.6,-11 m 7.7,-6.6 9.2,-8 5.7,-5.5 m 7.3,-6.9 2.2,-2 4.9,-5.1" /></g></g></g><g
               id="g726"><g
                 id="g728"><g
                   id="g730"><path
                     id="path732"
                     style="fill:none;stroke:#0a21b3;stroke-width:2;stroke-linecap:butt;stroke-linejoin:miter;stroke-miterlimit:4;stroke-dasharray:none;stroke-opacity:1"
                     d="M 260.5,320.9 260,320" /></g></g></g><g
               id="g734"><path
                 id="path736"
                 style="fill:#0a21b3;fill-opacity:1;fill-rule:nonzero;stroke:none"
                 d="m 697.8,322.3 -6.5,13.6 -6.7,-6.4 z" /></g><g
               id="g738"><g
                 id="g740"><g
                   id="g742"><path
                     id="path744"
                     style="fill:none;stroke:#0a21b3;stroke-width:2;stroke-linecap:butt;stroke-linejoin:miter;stroke-miterlimit:4;stroke-dasharray:none;stroke-opacity:1"
                     d="m 697.8,322.3 -6.5,13.6 -6.7,-6.4 z" /></g></g></g></g></g></g><g
         id="g746"><g
           id="g748"><g
             id="g750"><g
               transform="translate(400,380)"
               id="g752" /><g
               transform="translate(400,380)"
               id="g754"><g
                 id="g756"><path
                   id="path758"
                   style="fill:#ffffff;fill-opacity:0;fill-rule:nonzero;stroke:none"
                   d="M 0,6 C 0,0 6,0 6,0 h 148 c 6,0 6,6 6,6 v 19.7 c 0,5.96 -6,5.96 -6,5.96 L 6,31.7 C 0,31.66 0,25.66 0,25.66 Z" /></g><g
                 id="g760"><g
                   id="g762"><g
                     id="g764"><path
                       id="path766"
                       style="fill:none;stroke:#000000;stroke-width:3;stroke-linecap:butt;stroke-linejoin:miter;stroke-miterlimit:4;stroke-dasharray:none;stroke-opacity:0"
                       d="M 0,6 C 0,0 6,0 6,0 h 148 c 6,0 6,6 6,6 v 19.7 c 0,5.96 -6,5.96 -6,5.96 L 6,31.7 C 0,31.66 0,25.66 0,25.66 Z" /></g></g></g></g><g
               id="g768"><g
                 transform="translate(405,385)"
                 id="g770"><g
                   id="g772"><g
                     transform="matrix(0.02222,0,0,0.02222,43.12,9.721656)"
                     id="g774"><g
                       transform="translate(0,245.2)"
                       id="g776"><g
                         id="g778"><g
                           id="g780"><path
                             id="path782"
                             style="fill:#333333;fill-opacity:1;fill-rule:nonzero;stroke:none"
                             d="m 102,-334 c 3,-68 -26,-64 -75,-56 v -7.5 -7.5 l 155,-55 4,3 v 177.5 177.5 c 1,73 8,82 74,87 V -7.5 0 H 23 V -7.5 -15 c 68,-3 79,-13 79,-87 v -116 z m 33,-349 c 29,0 52,22 52,51 0,29 -22,51 -52,51 -28,0 -50,-22 -50,-51 0,-28 23,-51 50,-51 z" /></g></g></g><g
                       transform="translate(278,245.2)"
                       id="g784"><g
                         id="g786"><g
                           id="g788" /></g></g></g></g><g
                   id="g790"><g
                     transform="matrix(0.02222,0,0,0.02222,54.85,9.721656)"
                     id="g792"><g
                       transform="translate(0,245.2)"
                       id="g794"><g
                         id="g796"><g
                           id="g798"><path
                             id="path800"
                             style="fill:#333333;fill-opacity:1;fill-rule:nonzero;stroke:none"
                             d="m 528,-433 v 26.5 26.5 H 37 v -26.5 -26.5 z m 0,200 v 26.5 26.5 H 37 v -26.5 -26.5 z" /></g></g></g><g
                       transform="translate(564,245.2)"
                       id="g802"><g
                         id="g804"><g
                           id="g806" /></g></g></g></g><g
                   id="g808"><g
                     transform="matrix(0.02222,0,0,0.02222,72.94,9.721656)"
                     id="g810"><g
                       transform="translate(0,245.2)"
                       id="g812"><g
                         id="g814"><g
                           id="g816"><path
                             id="path818"
                             style="fill:#333333;fill-opacity:1;fill-rule:nonzero;stroke:none"
                             d="m 395,-521 c 0,138 -159,203 -170,357 h -17 c -3,-126 95,-240 95,-362 0,-67 -48,-120 -109,-120 -48,0 -94,30 -94,62 0,19 46,54 38,74 0,25 -16,41 -41,41 -32,0 -48,-21 -48,-62 0,-83 70,-145 162,-145 93,0 184,53 184,155 z M 218,-97 c 30,0 55,24 55,54 0,30 -23,51 -55,51 -31,0 -53,-21 -53,-50 0,-31 23,-55 53,-55 z" /></g></g></g><g
                       transform="translate(444,245.2)"
                       id="g820"><g
                         id="g822"><g
                           id="g824" /></g></g></g></g><g
                   id="g826"><g
                     transform="matrix(0.02222,0,0,0.02222,88.36,9.721656)"
                     id="g828"><g
                       transform="translate(0,245.2)"
                       id="g830"><g
                         id="g832"><g
                           id="g834"><path
                             id="path836"
                             style="fill:#333333;fill-opacity:1;fill-rule:nonzero;stroke:none"
                             d="m 593,-676 h 43 L 249,13 h -48 z m 53,344 c 81,0 141,77 141,180 0,104 -57,176 -139,176 -81,0 -142,-76 -142,-177 0,-103 60,-179 140,-179 z m 1,26 c -41,0 -63,52 -63,151 0,100 21,152 62,152 40,0 64,-55 64,-148 0,-100 -22,-155 -63,-155 z M 188,-675 c 81,0 137,76 137,184 0,103 -57,174 -140,174 -82,0 -141,-75 -141,-178 0,-104 60,-180 144,-180 z m -2,27 c -43,0 -64,48 -64,147 0,109 20,160 61,160 42,0 65,-55 65,-152 0,-99 -23,-155 -62,-155 z" /></g></g></g></g></g><g
                   id="g838"><g
                     transform="matrix(0.02222,0,0,0.02222,52.68,36.391656)"
                     id="g840"><g
                       transform="translate(0,245.2)"
                       id="g842"><g
                         id="g844"><g
                           id="g846"><path
                             id="path848"
                             style="fill:#333333;fill-opacity:1;fill-rule:nonzero;stroke:none"
                             d="M 18,0 V -7.5 -15 c 50,-3 62,-16 62,-75 v -124 -124 c 3,-64 -22,-70 -64,-60 v -8.5 -8.5 c 55,-16 89,-27 138,-45 l 7,2 v 39.5 39.5 c 68,-64 99,-81 145,-81 74,0 118,56 118,150 V -195.5 -81 c 1,49 12,61 61,66 V -7.5 0 H 277 V -7.5 -15 c 49,-3 63,-19 63,-84 V -203.5 -308 c 0,-66 -24,-97 -73,-97 -33,0 -56,12 -103,57 V -207.5 -67 c 0,36 16,49 66,52 V -7.5 0 Z" /></g></g></g><g
                       transform="translate(500,245.2)"
                       id="g850"><g
                         id="g852"><g
                           id="g854" /></g></g></g></g><g
                   id="g856"><g
                     transform="matrix(0.02222,0,0,0.02222,69.35,36.391656)"
                     id="g858"><g
                       transform="translate(0,245.2)"
                       id="g860"><g
                         id="g862"><g
                           id="g864"><path
                             id="path866"
                             style="fill:#333333;fill-opacity:1;fill-rule:nonzero;stroke:none"
                             d="m 528,-433 v 26.5 26.5 H 37 v -26.5 -26.5 z m 0,200 v 26.5 26.5 H 37 v -26.5 -26.5 z" /></g></g></g><g
                       transform="translate(564,245.2)"
                       id="g868"><g
                         id="g870"><g
                           id="g872" /></g></g></g></g><g
                   id="g874"><g
                     transform="matrix(0.02222,0,0,0.02222,87.44,36.391656)"
                     id="g876"><g
                       transform="translate(0,245.2)"
                       id="g878"><g
                         id="g880"><g
                           id="g882"><path
                             id="path884"
                             style="fill:#333333;fill-opacity:1;fill-rule:nonzero;stroke:none"
                             d="m 395,-521 c 0,138 -159,203 -170,357 h -17 c -3,-126 95,-240 95,-362 0,-67 -48,-120 -109,-120 -48,0 -94,30 -94,62 0,19 46,54 38,74 0,25 -16,41 -41,41 -32,0 -48,-21 -48,-62 0,-83 70,-145 162,-145 93,0 184,53 184,155 z M 218,-97 c 30,0 55,24 55,54 0,30 -23,51 -55,51 -31,0 -53,-21 -53,-50 0,-31 23,-55 53,-55 z" /></g></g></g></g></g></g></g></g></g></g><g
         id="g886"><g
           id="g888"><g
             id="g890"><g
               transform="translate(394,194.9)"
               id="g892" /><g
               transform="translate(394,194.9)"
               id="g894"><g
                 id="g896"><path
                   id="path898"
                   style="fill:#ffffff;fill-opacity:0;fill-rule:nonzero;stroke:none"
                   d="M 0,6 C 0,0 6,0 6,0 h 120 c 6,0 6,6 6,6 v 38 c 0,6 -6,6 -6,6 H 6 C 0,50 0,44 0,44 Z" /></g><g
                 id="g900"><g
                   id="g902"><g
                     id="g904"><path
                       id="path906"
                       style="fill:none;stroke:#000000;stroke-width:3;stroke-linecap:butt;stroke-linejoin:miter;stroke-miterlimit:4;stroke-dasharray:none;stroke-opacity:0"
                       d="M 0,6 C 0,0 6,0 6,0 h 120 c 6,0 6,6 6,6 v 38 c 0,6 -6,6 -6,6 H 6 C 0,50 0,44 0,44 Z" /></g></g></g></g><g
               id="g908"><g
                 transform="translate(399,199.9)"
                 id="g910"><g
                   id="g912"><g
                     transform="matrix(0.09259,0,0,0.09259,47.11,6.456932)"
                     id="g914"><g
                       transform="translate(0,245.2)"
                       id="g916"><g
                         id="g918"><g
                           id="g920"><path
                             id="path922"
                             style="fill:#333333;fill-opacity:1;fill-rule:nonzero;stroke:none"
                             d="M 33,0 V -19 -38 H 67 V -19 0 Z" /></g></g></g><g
                       transform="translate(100,245.2)"
                       id="g924"><g
                         id="g926"><g
                           id="g928"><path
                             id="path930"
                             style="fill:#333333;fill-opacity:1;fill-rule:nonzero;stroke:none"
                             d="M 33,0 V -19 -38 H 67 V -19 0 Z" /></g></g></g><g
                       transform="translate(200,245.2)"
                       id="g932"><g
                         id="g934"><g
                           id="g936"><path
                             id="path938"
                             style="fill:#333333;fill-opacity:1;fill-rule:nonzero;stroke:none"
                             d="M 33,0 V -19 -38 H 67 V -19 0 Z" /></g></g></g></g></g></g></g></g></g></g></g><g
       transform="scale(1,-1)"
       id="g940" /></g></svg>